
<svg xmlns="http://www.w3.org/2000/svg" version="1.1" xmlns:xlink="http://www.w3.org/1999/xlink" preserveAspectRatio="none" x="0px" y="0px" width="728px" height="90px" viewBox="0 0 728 90">
<defs>
<g id="FL_728x90_psd_Asset_Urgency_02_Laptop_free_0_Layer0_0_MEMBER_0_FILL">
<path fill="#FFFFFF" stroke="none" d="
M 30.3 -37.7
L 3.75 -37.7 3.75 0 13.05 0 13.05 -14.15 28.65 -14.15 28.65 -21.85 13.05 -21.85 13.05 -30 30.3 -30 30.3 -37.7 Z"/>
</g>

<g id="FL_728x90_psd_Asset_Urgency_02_Laptop_free_0_Layer0_0_MEMBER_1_FILL">
<path fill="#FFFFFF" stroke="none" d="
M 45.2 -11.2
L 51.3 -11.2 57.7 0 68.5 0 60.75 -12.7
Q 64.1 -14.3 65.95 -17.3 67.8 -20.4 67.8 -24.4 67.8 -30.35 64.15 -33.95 60.35 -37.7 53.65 -37.7
L 35.95 -37.7 35.95 0 45.2 0 45.2 -11.2
M 52.6 -30.3
Q 55.45 -30.3 57 -28.65 58.5 -27.05 58.5 -24.3 58.5 -21.65 57 -20.15 55.45 -18.55 52.6 -18.55
L 45.2 -18.55 45.2 -30.3 52.6 -30.3 Z"/>
</g>

<g id="FL_728x90_psd_Asset_Urgency_02_Laptop_free_0_Layer0_0_MEMBER_2_FILL">
<path fill="#FFFFFF" stroke="none" d="
M 101.45 -30
L 101.45 -37.7 74.15 -37.7 74.15 0 101.5 0 101.5 -7.7 83.4 -7.7 83.4 -15.25 99.85 -15.25 99.85 -22.95 83.4 -22.95 83.4 -30 101.45 -30 Z"/>
</g>

<g id="FL_728x90_psd_Asset_Urgency_02_Laptop_free_0_Layer0_0_MEMBER_3_FILL">
<path fill="#FFFFFF" stroke="none" d="
M 117.15 -22.95
L 117.15 -30 135.2 -30 135.2 -37.7 107.85 -37.7 107.85 0 135.25 0 135.25 -7.7 117.15 -7.7 117.15 -15.25 133.55 -15.25 133.55 -22.95 117.15 -22.95 Z"/>
</g>

<g id="FL_728x90_psd_Asset_Urgency_02_Beat_the_tax__deadline_for_0_Layer0_0_MEMBER_0_FILL">
<path fill="#FFFFFF" stroke="none" d="
M 37.2 -31.95
Q 37.2 -36.7 34.05 -39.7 30.7 -42.95 24.85 -42.95
L 4.3 -42.95 4.3 0 25.1 0
Q 31.55 0 35.65 -3.25 39.85 -6.55 39.85 -12 39.85 -19.9 31.6 -22.2 37.2 -25.15 37.2 -31.95
M 25.65 -27.05
Q 24.5 -25.8 22.45 -25.8
L 14.6 -25.8 14.6 -34.65 22.3 -34.65
Q 24.4 -34.65 25.6 -33.5 26.75 -32.4 26.75 -30.4 26.75 -28.25 25.65 -27.05
M 14.6 -8.3
L 14.6 -17.6 24.55 -17.6
Q 26.85 -17.6 28.15 -16.4 29.45 -15.15 29.45 -13 29.45 -10.9 28.2 -9.6 26.9 -8.3 24.7 -8.3
L 14.6 -8.3 Z"/>
</g>

<g id="FL_728x90_psd_Asset_Urgency_02_Beat_the_tax__deadline_for_0_Layer0_0_MEMBER_1_FILL">
<path fill="#FFFFFF" stroke="none" d="
M 77.45 -34.15
L 77.45 -42.95 46.35 -42.95 46.35 0 77.5 0 77.5 -8.75 56.9 -8.75 56.9 -17.35 75.6 -17.35 75.6 -26.1 56.9 -26.1 56.9 -34.15 77.45 -34.15 Z"/>
</g>

<g id="FL_728x90_psd_Asset_Urgency_02_Beat_the_tax__deadline_for_0_Layer0_0_MEMBER_2_FILL">
<path fill="#FFFFFF" stroke="none" d="
M 94.95 -7.95
L 110.45 -7.95 112.9 0 123.45 0 108.1 -42.95 97.35 -42.95 82 0 92.55 0 94.95 -7.95
M 97.5 -16.45
L 102.7 -33.4 107.85 -16.45 97.5 -16.45 Z"/>
</g>

<g id="FL_728x90_psd_Asset_Urgency_02_Beat_the_tax__deadline_for_0_Layer0_0_MEMBER_3_FILL">
<path fill="#FFFFFF" stroke="none" d="
M 155.95 -42.95
L 122.25 -42.95 122.25 -34.05 133.8 -34.05 133.8 0 144.35 0 144.35 -34.05 155.95 -34.05 155.95 -42.95 Z"/>
</g>

<g id="FL_728x90_psd_Asset_Urgency_02_Beat_the_tax__deadline_for_0_Layer0_0_MEMBER_4_FILL">
<path fill="#FFFFFF" stroke="none" d="
M 170.8 -34.05
L 182.4 -34.05 182.4 0 192.95 0 192.95 -34.05 204.55 -34.05 204.55 -42.95 170.8 -42.95 170.8 -34.05 Z"/>
</g>

<g id="FL_728x90_psd_Asset_Urgency_02_Beat_the_tax__deadline_for_0_Layer0_0_MEMBER_5_FILL">
<path fill="#FFFFFF" stroke="none" d="
M 220.9 -16.8
L 235.85 -16.8 235.85 0 246.4 0 246.4 -42.95 235.85 -42.95 235.85 -26.25 220.9 -26.25 220.9 -42.95 210.35 -42.95 210.35 0 220.9 0 220.9 -16.8 Z"/>
</g>

<g id="FL_728x90_psd_Asset_Urgency_02_Beat_the_tax__deadline_for_0_Layer0_0_MEMBER_6_FILL">
<path fill="#FFFFFF" stroke="none" d="
M 265.55 -26.1
L 265.55 -34.15 286.1 -34.15 286.1 -42.95 255 -42.95 255 0 286.15 0 286.15 -8.75 265.55 -8.75 265.55 -17.35 284.25 -17.35 284.25 -26.1 265.55 -26.1 Z"/>
</g>

<g id="FL_728x90_psd_Asset_Urgency_02_Beat_the_tax__deadline_for_0_Layer0_0_MEMBER_7_FILL">
<path fill="#FFFFFF" stroke="none" d="
M 302.4 -34.05
L 314 -34.05 314 0 324.55 0 324.55 -34.05 336.15 -34.05 336.15 -42.95 302.4 -42.95 302.4 -34.05 Z"/>
</g>

<g id="FL_728x90_psd_Asset_Urgency_02_Beat_the_tax__deadline_for_0_Layer0_0_MEMBER_8_FILL">
<path fill="#FFFFFF" stroke="none" d="
M 347.85 -7.95
L 363.35 -7.95 365.8 0 376.35 0 361.05 -42.95 350.25 -42.95 334.9 0 345.45 0 347.85 -7.95
M 350.45 -16.45
L 355.65 -33.4 360.8 -16.45 350.45 -16.45 Z"/>
</g>

<g id="FL_728x90_psd_Asset_Urgency_02_Beat_the_tax__deadline_for_0_Layer0_0_MEMBER_9_FILL">
<path fill="#FFFFFF" stroke="none" d="
M 380.25 -42.95
L 393.75 -21.9 379.6 0 390.7 0 399.25 -13.3 407.85 0 418.85 0 404.75 -21.85 418.3 -42.95 407.35 -42.95 399.25 -30.35 391.15 -42.95 380.25 -42.95 Z"/>
</g>

<g id="FL_728x90_psd_Asset_Urgency_02_Beat_the_tax__deadline_for_0_Layer0_0_MEMBER_10_FILL">
<path fill="#FFFFFF" stroke="none" d="
M 40.95 39.75
L 40.95 30.95
Q 40.95 23.25 36.45 18.7 31.7 13.9 23.05 13.9
L 4.3 13.9 4.3 56.8 23.05 56.8
Q 31.7 56.8 36.45 52 40.95 47.45 40.95 39.75
M 30.4 30.85
L 30.4 39.8
Q 30.4 48.15 21.15 48.15
L 14.8 48.15 14.8 22.55 21.15 22.55
Q 30.4 22.55 30.4 30.85 Z"/>
</g>

<g id="FL_728x90_psd_Asset_Urgency_02_Beat_the_tax__deadline_for_0_Layer0_0_MEMBER_11_FILL">
<path fill="#FFFFFF" stroke="none" d="
M 79.3 22.65
L 79.3 13.9 48.2 13.9 48.2 56.8 79.35 56.8 79.35 48.05 58.75 48.05 58.75 39.45 77.45 39.45 77.45 30.7 58.75 30.7 58.75 22.65 79.3 22.65 Z"/>
</g>

<g id="FL_728x90_psd_Asset_Urgency_02_Beat_the_tax__deadline_for_0_Layer0_0_MEMBER_12_FILL">
<path fill="#FFFFFF" stroke="none" d="
M 96.75 48.85
L 112.3 48.85 114.75 56.8 125.3 56.8 109.95 13.9 99.15 13.9 83.85 56.8 94.4 56.8 96.75 48.85
M 99.35 40.4
L 104.55 23.4 109.7 40.4 99.35 40.4 Z"/>
</g>

<g id="FL_728x90_psd_Asset_Urgency_02_Beat_the_tax__deadline_for_0_Layer0_0_MEMBER_13_FILL">
<path fill="#FFFFFF" stroke="none" d="
M 167.5 30.95
Q 167.5 23.3 163 18.7 158.2 13.9 149.6 13.9
L 130.8 13.9 130.8 56.8 149.6 56.8
Q 158.2 56.8 163 52 167.5 47.45 167.5 39.75
L 167.5 30.95
M 156.95 30.85
L 156.95 39.8
Q 156.95 48.15 147.7 48.15
L 141.3 48.15 141.3 22.55 147.7 22.55
Q 156.95 22.55 156.95 30.85 Z"/>
</g>

<g id="FL_728x90_psd_Asset_Urgency_02_Beat_the_tax__deadline_for_0_Layer0_0_MEMBER_14_FILL">
<path fill="#FFFFFF" stroke="none" d="
M 185.25 13.9
L 174.7 13.9 174.7 56.8 204.2 56.8 204.2 48.05 185.25 48.05 185.25 13.9 Z"/>
</g>

<g id="FL_728x90_psd_Asset_Urgency_02_Beat_the_tax__deadline_for_0_Layer0_0_MEMBER_15_FILL">
<path fill="#FFFFFF" stroke="none" d="
M 221.5 13.9
L 210.95 13.9 210.95 56.8 221.5 56.8 221.5 13.9 Z"/>
</g>

<g id="FL_728x90_psd_Asset_Urgency_02_Beat_the_tax__deadline_for_0_Layer0_0_MEMBER_16_FILL">
<path fill="#FFFFFF" stroke="none" d="
M 256.55 13.9
L 256.55 38.95 240.4 13.9 230.4 13.9 230.4 56.8 240.7 56.8 240.7 31.75 256.8 56.8 266.85 56.8 266.85 13.9 256.55 13.9 Z"/>
</g>

<g id="FL_728x90_psd_Asset_Urgency_02_Beat_the_tax__deadline_for_0_Layer0_0_MEMBER_17_FILL">
<path fill="#FFFFFF" stroke="none" d="
M 306.5 22.65
L 306.5 13.9 275.4 13.9 275.4 56.8 306.6 56.8 306.6 48.05 285.95 48.05 285.95 39.45 304.7 39.45 304.7 30.7 285.95 30.7 285.95 22.65 306.5 22.65 Z"/>
</g>

<g id="FL_728x90_psd_Asset_Urgency_02_Beat_the_tax__deadline_for_0_Layer0_0_MEMBER_18_FILL">
<path fill="#FFFFFF" stroke="none" d="
M 357.5 13.9
L 327.3 13.9 327.3 56.8 337.85 56.8 337.85 40.7 355.65 40.7 355.65 31.9 337.85 31.9 337.85 22.65 357.5 22.65 357.5 13.9 Z"/>
</g>

<g id="FL_728x90_psd_Asset_Urgency_02_Beat_the_tax__deadline_for_0_Layer0_0_MEMBER_19_FILL">
<path fill="#FFFFFF" stroke="none" d="
M 382.15 13.05
Q 372.7 13.05 367.45 18.6 362.45 23.85 362.45 32.6
L 362.45 38.1
Q 362.45 46.85 367.45 52.1 372.7 57.65 382.15 57.65 391.6 57.65 396.85 52.1 401.8 46.85 401.8 38.1
L 401.8 32.6
Q 401.8 23.85 396.85 18.6 391.6 13.05 382.15 13.05
M 375.25 24.6
Q 377.65 21.8 382.15 21.8 386.6 21.8 389 24.6 391.25 27.3 391.25 32.05
L 391.25 38.65
Q 391.25 43.4 389 46.1 386.6 48.9 382.15 48.9 377.65 48.9 375.25 46.1 373 43.4 373 38.65
L 373 32.05
Q 373 27.3 375.25 24.6 Z"/>
</g>

<g id="FL_728x90_psd_Asset_Urgency_02_Beat_the_tax__deadline_for_0_Layer0_0_MEMBER_20_FILL">
<path fill="#FFFFFF" stroke="none" d="
M 441.2 18.2
Q 436.85 13.9 429.25 13.9
L 409.05 13.9 409.05 56.8 419.6 56.8 419.6 44.05 426.55 44.05 433.85 56.8 446.1 56.8 437.35 42.35
Q 441.1 40.55 443.2 37.1 445.3 33.6 445.3 29.05 445.3 22.25 441.2 18.2
M 428 22.35
Q 431.25 22.35 433.05 24.2 434.75 26 434.75 29.15 434.75 32.15 433.05 33.9 431.25 35.7 428 35.7
L 419.6 35.7 419.6 22.35 428 22.35 Z"/>
</g>
</defs>

<g transform="matrix( 1, 0, 0, 1, -1,-165) ">
<g transform="matrix( 1, 0, 0, 1, 1,0) ">
<g transform="matrix( 1, 0, 0, 1, 447,177) ">
<g transform="matrix( 1, 0, 0, 1, 44,25) ">
<g transform="matrix( 0.9713592529296875, 0, 0, 0.967559814453125, -3.95,35.7) ">
<use xlink:href="#FL_728x90_psd_Asset_Urgency_02_Laptop_free_0_Layer0_0_MEMBER_0_FILL"/>
</g>

<g transform="matrix( 0.9713592529296875, 0, 0, 0.967559814453125, -3.95,35.7) ">
<use xlink:href="#FL_728x90_psd_Asset_Urgency_02_Laptop_free_0_Layer0_0_MEMBER_1_FILL"/>
</g>

<g transform="matrix( 0.9713592529296875, 0, 0, 0.967559814453125, -3.95,35.7) ">
<use xlink:href="#FL_728x90_psd_Asset_Urgency_02_Laptop_free_0_Layer0_0_MEMBER_2_FILL"/>
</g>

<g transform="matrix( 0.9713592529296875, 0, 0, 0.967559814453125, -3.95,35.7) ">
<use xlink:href="#FL_728x90_psd_Asset_Urgency_02_Laptop_free_0_Layer0_0_MEMBER_3_FILL"/>
</g>
</g>
</g>

<g transform="matrix( 1, 0, 0, 1, 214,187) ">
<g transform="matrix( 0.4720458984375, 0, 0, 0.473663330078125, -2.05,20.65) ">
<use xlink:href="#FL_728x90_psd_Asset_Urgency_02_Beat_the_tax__deadline_for_0_Layer0_0_MEMBER_0_FILL"/>
</g>

<g transform="matrix( 0.4720458984375, 0, 0, 0.473663330078125, -2.05,20.65) ">
<use xlink:href="#FL_728x90_psd_Asset_Urgency_02_Beat_the_tax__deadline_for_0_Layer0_0_MEMBER_1_FILL"/>
</g>

<g transform="matrix( 0.4720458984375, 0, 0, 0.473663330078125, -2.05,20.65) ">
<use xlink:href="#FL_728x90_psd_Asset_Urgency_02_Beat_the_tax__deadline_for_0_Layer0_0_MEMBER_2_FILL"/>
</g>

<g transform="matrix( 0.4720458984375, 0, 0, 0.473663330078125, -2.05,20.65) ">
<use xlink:href="#FL_728x90_psd_Asset_Urgency_02_Beat_the_tax__deadline_for_0_Layer0_0_MEMBER_3_FILL"/>
</g>

<g transform="matrix( 0.4720458984375, 0, 0, 0.473663330078125, -2.05,20.65) ">
<use xlink:href="#FL_728x90_psd_Asset_Urgency_02_Beat_the_tax__deadline_for_0_Layer0_0_MEMBER_4_FILL"/>
</g>

<g transform="matrix( 0.4720458984375, 0, 0, 0.473663330078125, -2.05,20.65) ">
<use xlink:href="#FL_728x90_psd_Asset_Urgency_02_Beat_the_tax__deadline_for_0_Layer0_0_MEMBER_5_FILL"/>
</g>

<g transform="matrix( 0.4720458984375, 0, 0, 0.473663330078125, -2.05,20.65) ">
<use xlink:href="#FL_728x90_psd_Asset_Urgency_02_Beat_the_tax__deadline_for_0_Layer0_0_MEMBER_6_FILL"/>
</g>

<g transform="matrix( 0.4720458984375, 0, 0, 0.473663330078125, -2.05,20.65) ">
<use xlink:href="#FL_728x90_psd_Asset_Urgency_02_Beat_the_tax__deadline_for_0_Layer0_0_MEMBER_7_FILL"/>
</g>

<g transform="matrix( 0.4720458984375, 0, 0, 0.473663330078125, -2.05,20.65) ">
<use xlink:href="#FL_728x90_psd_Asset_Urgency_02_Beat_the_tax__deadline_for_0_Layer0_0_MEMBER_8_FILL"/>
</g>

<g transform="matrix( 0.4720458984375, 0, 0, 0.473663330078125, -2.05,20.65) ">
<use xlink:href="#FL_728x90_psd_Asset_Urgency_02_Beat_the_tax__deadline_for_0_Layer0_0_MEMBER_9_FILL"/>
</g>

<g transform="matrix( 0.4720458984375, 0, 0, 0.473663330078125, -2.05,20.65) ">
<use xlink:href="#FL_728x90_psd_Asset_Urgency_02_Beat_the_tax__deadline_for_0_Layer0_0_MEMBER_10_FILL"/>
</g>

<g transform="matrix( 0.4720458984375, 0, 0, 0.473663330078125, -2.05,20.65) ">
<use xlink:href="#FL_728x90_psd_Asset_Urgency_02_Beat_the_tax__deadline_for_0_Layer0_0_MEMBER_11_FILL"/>
</g>

<g transform="matrix( 0.4720458984375, 0, 0, 0.473663330078125, -2.05,20.65) ">
<use xlink:href="#FL_728x90_psd_Asset_Urgency_02_Beat_the_tax__deadline_for_0_Layer0_0_MEMBER_12_FILL"/>
</g>

<g transform="matrix( 0.4720458984375, 0, 0, 0.473663330078125, -2.05,20.65) ">
<use xlink:href="#FL_728x90_psd_Asset_Urgency_02_Beat_the_tax__deadline_for_0_Layer0_0_MEMBER_13_FILL"/>
</g>

<g transform="matrix( 0.4720458984375, 0, 0, 0.473663330078125, -2.05,20.65) ">
<use xlink:href="#FL_728x90_psd_Asset_Urgency_02_Beat_the_tax__deadline_for_0_Layer0_0_MEMBER_14_FILL"/>
</g>

<g transform="matrix( 0.4720458984375, 0, 0, 0.473663330078125, -2.05,20.65) ">
<use xlink:href="#FL_728x90_psd_Asset_Urgency_02_Beat_the_tax__deadline_for_0_Layer0_0_MEMBER_15_FILL"/>
</g>

<g transform="matrix( 0.4720458984375, 0, 0, 0.473663330078125, -2.05,20.65) ">
<use xlink:href="#FL_728x90_psd_Asset_Urgency_02_Beat_the_tax__deadline_for_0_Layer0_0_MEMBER_16_FILL"/>
</g>

<g transform="matrix( 0.4720458984375, 0, 0, 0.473663330078125, -2.05,20.65) ">
<use xlink:href="#FL_728x90_psd_Asset_Urgency_02_Beat_the_tax__deadline_for_0_Layer0_0_MEMBER_17_FILL"/>
</g>

<g transform="matrix( 0.4720458984375, 0, 0, 0.473663330078125, -2.05,20.65) ">
<use xlink:href="#FL_728x90_psd_Asset_Urgency_02_Beat_the_tax__deadline_for_0_Layer0_0_MEMBER_18_FILL"/>
</g>

<g transform="matrix( 0.4720458984375, 0, 0, 0.473663330078125, -2.05,20.65) ">
<use xlink:href="#FL_728x90_psd_Asset_Urgency_02_Beat_the_tax__deadline_for_0_Layer0_0_MEMBER_19_FILL"/>
</g>

<g transform="matrix( 0.4720458984375, 0, 0, 0.473663330078125, -2.05,20.65) ">
<use xlink:href="#FL_728x90_psd_Asset_Urgency_02_Beat_the_tax__deadline_for_0_Layer0_0_MEMBER_20_FILL"/>
</g>
</g>
</g>
</g>
</svg>
