
<svg xmlns="http://www.w3.org/2000/svg" version="1.1" xmlns:xlink="http://www.w3.org/1999/xlink" preserveAspectRatio="none" x="0px" y="0px" width="160px" height="600px" viewBox="0 0 160 600">
<defs>
<g id="Layer0_0_FILL">
<path fill="#82C44E" stroke="none" d="
M 13.4 13.4
L 13.4 69.35 69.4 69.35 69.4 13.4 13.4 13.4 Z"/>
</g>

<g id="Layer0_1_MEMBER_0_FILL">
<path fill="#FFFFFF" stroke="none" d="
M 20.65 49.2
L 23.15 49.2 23.15 52.7 26.2 52.7 26.2 43 23.15 43 23.15 46.45 20.65 46.45 20.65 43 17.6 43 17.6 52.7 20.65 52.7 20.65 49.2 Z"/>
</g>

<g id="Layer0_1_MEMBER_1_FILL">
<path fill="#FFFFFF" stroke="none" d="
M 46.65 46.6
Q 46.65 44.95 45.65 44 44.65 43 42.85 43
L 38 43 38 52.7 41.05 52.7 41.05 50.15 41.9 50.15 43.4 52.7 46.95 52.7 45 49.65
Q 46.65 48.7 46.65 46.6
M 42.5 47.75
L 41.05 47.75 41.05 45.4 42.5 45.4
Q 43.65 45.4 43.65 46.6 43.65 47.75 42.5 47.75 Z"/>
</g>

<g id="Layer0_1_MEMBER_2_FILL">
<path fill="#FFFFFF" stroke="none" d="
M 24.8 56.1
Q 24 55.4 22.65 55.4
L 17.6 55.4 17.6 65.1 22.7 65.1
Q 24.35 65.1 25.25 64.35 26.1 63.6 26.1 62.35 26.1 60.5 24.25 60.1 25.55 59.45 25.55 57.95 25.55 56.8 24.8 56.1
M 20.5 57.65
L 21.9 57.65
Q 22.65 57.65 22.65 58.4 22.65 59.2 21.9 59.2
L 20.5 59.2 20.5 57.65
M 20.45 61.25
L 22.5 61.25
Q 23.25 61.25 23.25 62.05 23.25 62.9 22.5 62.9
L 20.45 62.9 20.45 61.25 Z"/>
</g>

<g id="Layer0_1_MEMBER_3_FILL">
<path fill="#FFFFFF" stroke="none" d="
M 27.35 55.4
L 27.35 65.1 34.35 65.1 34.35 62.6 30.4 62.6 30.4 55.4 27.35 55.4 Z"/>
</g>

<g id="Layer0_1_MEMBER_4_FILL">
<path fill="#FFFFFF" stroke="none" d="
M 35.15 60.9
Q 35.15 62.9 36.35 64.1 37.55 65.3 39.75 65.3 42 65.3 43.2 64.1 44.4 62.9 44.4 60.9
L 44.4 59.65
Q 44.4 57.6 43.2 56.45 42 55.2 39.75 55.2 37.55 55.2 36.35 56.45 35.15 57.6 35.15 59.65
L 35.15 60.9
M 39.75 62.8
Q 38.2 62.8 38.2 61.05
L 38.2 59.5
Q 38.2 57.75 39.75 57.75 41.35 57.75 41.35 59.5
L 41.35 61.05
Q 41.35 62.8 39.75 62.8 Z"/>
</g>

<g id="Layer0_1_MEMBER_5_FILL">
<path fill="#FFFFFF" stroke="none" d="
M 51.55 59.2
L 54.4 59.2
Q 54.35 57.5 53.25 56.4 52.05 55.2 50.1 55.2 47.8 55.2 46.6 56.45 45.45 57.6 45.45 59.65
L 45.45 60.9
Q 45.45 62.95 46.6 64.1 47.8 65.3 50.1 65.3 52.05 65.3 53.25 64.15 54.35 63.05 54.4 61.35
L 51.55 61.35
Q 51.45 62.8 50.05 62.8 48.5 62.8 48.5 61.05
L 48.5 59.5
Q 48.5 57.75 50.05 57.75 51.45 57.75 51.55 59.2 Z"/>
</g>

<g id="Layer0_1_MEMBER_6_FILL">
<path fill="#FFFFFF" stroke="none" d="
M 66.05 56.8
Q 66.85 56.8 66.85 56 66.85 55.2 66.05 55.2 65.25 55.2 65.25 56 65.25 56.8 66.05 56.8
M 66.7 56
Q 66.7 56.65 66.05 56.65 65.45 56.65 65.45 56 65.45 55.35 66.05 55.35 66.7 55.35 66.7 56
M 66 56.3
L 66 56.15 66.05 56.15 66.15 56.3 66.4 56.3 66.25 56.1
Q 66.35 56.05 66.35 55.9 66.35 55.65 66.1 55.65
L 65.8 55.65 65.8 56.3 66 56.3
M 66.05 55.95
L 66 55.95 66 55.8 66.05 55.8 66.15 55.9 66.05 55.95 Z"/>
</g>

<g id="Layer0_1_MEMBER_7_FILL">
<path fill="#FFFFFF" stroke="none" d="
M 64.65 55.4
L 61.25 55.4 59.3 58.8 59.1 58.8 59.1 55.4 56.05 55.4 56.05 65.1 59.1 65.1 59.1 61.1 59.35 61.1 61.35 65.1 64.95 65.1 62.15 59.8 64.65 55.4 Z"/>
</g>

<g id="Layer0_1_MEMBER_8_FILL">
<path fill="#FFFFFF" stroke="none" d="
M 28.55 45.35
Q 28.55 46.35 29.3 47.05 27.55 47.9 27.55 49.7 27.55 51.15 28.65 52 29.75 52.9 31.75 52.9 33.2 52.9 34.15 52.25
L 34.55 52.7 37.25 52.7 35.45 50.65
Q 35.8 49.95 35.8 48.8
L 35.8 47.25 33.65 47.25 33.65 48.7 31.4 46.15
Q 31.05 45.7 31.05 45.35 31.05 44.75 31.75 44.75 32.45 44.75 32.45 45.4
L 32.45 45.9 34.75 45.9 34.75 45.25
Q 34.75 44.15 33.9 43.45 33.05 42.8 31.7 42.8 30.25 42.8 29.4 43.5 28.55 44.2 28.55 45.35
M 32.7 50.65
Q 32.35 50.9 31.7 50.9 31.15 50.9 30.65 50.6 30.1 50.2 30.1 49.6 30.1 48.9 30.8 48.5
L 32.7 50.65 Z"/>
</g>

<g id="Layer0_2_MEMBER_0_FILL">
<path fill="#373535" stroke="none" d="
M 83.45 26.9
L 83.45 39.55 84.35 39.55 84.35 26.9 88.6 26.9 88.6 26.15 79.2 26.15 79.2 26.9 83.45 26.9 Z"/>
</g>

<g id="Layer0_2_MEMBER_1_FILL">
<path fill="#373535" stroke="none" d="
M 94.25 26.15
L 93.3 26.15 88.2 39.55 89.2 39.55 90.5 35.85 97 35.85 98.35 39.55 99.35 39.55 94.25 26.15
M 93.8 27
L 96.7 35.05 90.8 35.05 93.8 27 Z"/>
</g>

<g id="Layer0_2_MEMBER_2_FILL">
<path fill="#373535" stroke="none" d="
M 111.05 39.55
L 106.4 32.7 110.9 26.15 109.9 26.15 105.9 32 101.85 26.15 100.85 26.15 105.4 32.7 100.7 39.55 101.7 39.55 105.9 33.45 110.05 39.55 111.05 39.55 Z"/>
</g>

<g id="Layer0_2_MEMBER_3_FILL">
<path fill="#373535" stroke="none" d="
M 81.2 49.4
Q 81.2 48.15 82.15 47.4 83.1 46.65 84.75 46.65 86.4 46.65 87.4 47.5 88.4 48.35 88.4 49.7
L 88.4 49.95 89.3 49.95 89.3 49.65
Q 89.3 48 88 46.95 86.75 45.9 84.75 45.9 82.7 45.9 81.5 46.85 80.3 47.85 80.3 49.5 80.3 51.95 82.8 52.55
L 86.8 53.6
Q 88.9 54.15 88.9 56.05 88.9 57.45 87.8 58.25 86.7 59.05 84.95 59.05 83.15 59.05 82.05 58.2 80.95 57.3 80.95 55.85
L 80.95 55.6 80.05 55.6 80.05 55.9
Q 80.05 57.65 81.45 58.75 82.85 59.85 84.95 59.85 87.05 59.85 88.4 58.85 89.8 57.8 89.8 56 89.8 53.55 87.1 52.8
L 83.1 51.75
Q 81.2 51.3 81.2 49.4 Z"/>
</g>

<g id="Layer0_2_MEMBER_4_FILL">
<path fill="#373535" stroke="none" d="
M 101.65 47.6
Q 100.2 45.9 97.55 45.9 94.9 45.9 93.45 47.6 92.1 49.2 92.1 51.7
L 92.1 54
Q 92.1 56.5 93.45 58.1 94.9 59.85 97.55 59.85 100.2 59.85 101.65 58.1 103 56.5 103 54
L 103 51.7
Q 103 49.2 101.65 47.6
M 94.1 48.15
Q 95.3 46.65 97.55 46.65 99.8 46.65 101 48.15 102.1 49.5 102.1 51.7
L 102.1 54.05
Q 102.1 56.2 101 57.55 99.8 59.05 97.55 59.05 95.3 59.05 94.1 57.55 93 56.2 93 54.05
L 93 51.7
Q 93 49.5 94.1 48.15 Z"/>
</g>

<g id="Layer0_2_MEMBER_5_FILL">
<path fill="#373535" stroke="none" d="
M 106.8 46.95
L 114.25 46.95 114.25 46.15 105.85 46.15 105.85 59.55 106.8 59.55 106.8 53.35 113.7 53.35 113.7 52.55 106.8 52.55 106.8 46.95 Z"/>
</g>

<g id="Layer0_2_MEMBER_6_FILL">
<path fill="#373535" stroke="none" d="
M 124.6 46.95
L 124.6 46.15 115.15 46.15 115.15 46.95 119.4 46.95 119.4 59.55 120.35 59.55 120.35 46.95 124.6 46.95 Z"/>
</g>

<g id="Layer0_2_MEMBER_7_FILL">
<path fill="#373535" stroke="none" d="
M 141.55 46.15
L 140.6 46.15 137.85 58.35 134.15 46.15 133.1 46.15 129.4 58.35 126.65 46.15 125.75 46.15 128.9 59.55 129.9 59.55 133.65 47.15 137.4 59.55 138.35 59.55 141.55 46.15 Z"/>
</g>

<g id="Layer0_2_MEMBER_8_FILL">
<path fill="#373535" stroke="none" d="
M 147.65 46.15
L 146.65 46.15 141.6 59.55 142.55 59.55 143.9 55.9 150.4 55.9 151.75 59.55 152.7 59.55 147.65 46.15
M 150.1 55.1
L 144.2 55.1 147.15 47.05 150.1 55.1 Z"/>
</g>

<g id="Layer0_2_MEMBER_9_FILL">
<path fill="#373535" stroke="none" d="
M 163.45 59.55
L 164.45 59.55 161.45 54.2
Q 162.9 53.85 163.7 52.75 164.5 51.7 164.5 50.3 164.5 48.55 163.4 47.4 162.2 46.15 160.2 46.15
L 154.85 46.15 154.85 59.55 155.8 59.55 155.8 54.35 160.55 54.35 163.45 59.55
M 163.55 50.3
Q 163.55 51.75 162.7 52.65 161.7 53.6 160 53.6
L 155.8 53.6 155.8 46.95 160.05 46.95
Q 161.75 46.95 162.7 47.95 163.55 48.85 163.55 50.3 Z"/>
</g>

<g id="Layer0_2_MEMBER_10_FILL">
<path fill="#373535" stroke="none" d="
M 168.05 46.95
L 175.7 46.95 175.7 46.15 167.15 46.15 167.15 59.55 175.75 59.55 175.75 58.75 168.05 58.75 168.05 53.15 175.15 53.15 175.15 52.35 168.05 52.35 168.05 46.95 Z"/>
</g>
</defs>

<g transform="matrix( 0.60491943359375, 0, 0, 0.60491943359375, 23.2,4.55) ">
<use xlink:href="#Layer0_0_FILL"/>
</g>

<g transform="matrix( 0.6048736572265625, 0, 0, 0.6048736572265625, 23.2,4.8) ">
<use xlink:href="#Layer0_1_MEMBER_0_FILL"/>
</g>

<g transform="matrix( 0.6048736572265625, 0, 0, 0.6048736572265625, 23.2,4.8) ">
<use xlink:href="#Layer0_1_MEMBER_1_FILL"/>
</g>

<g transform="matrix( 0.6048736572265625, 0, 0, 0.6048736572265625, 23.2,4.8) ">
<use xlink:href="#Layer0_1_MEMBER_2_FILL"/>
</g>

<g transform="matrix( 0.6048736572265625, 0, 0, 0.6048736572265625, 23.2,4.8) ">
<use xlink:href="#Layer0_1_MEMBER_3_FILL"/>
</g>

<g transform="matrix( 0.6048736572265625, 0, 0, 0.6048736572265625, 23.2,4.8) ">
<use xlink:href="#Layer0_1_MEMBER_4_FILL"/>
</g>

<g transform="matrix( 0.6048736572265625, 0, 0, 0.6048736572265625, 23.2,4.8) ">
<use xlink:href="#Layer0_1_MEMBER_5_FILL"/>
</g>

<g transform="matrix( 0.6048736572265625, 0, 0, 0.6048736572265625, 23.2,4.8) ">
<use xlink:href="#Layer0_1_MEMBER_6_FILL"/>
</g>

<g transform="matrix( 0.6048736572265625, 0, 0, 0.6048736572265625, 23.2,4.8) ">
<use xlink:href="#Layer0_1_MEMBER_7_FILL"/>
</g>

<g transform="matrix( 0.6048736572265625, 0, 0, 0.6048736572265625, 23.2,4.8) ">
<use xlink:href="#Layer0_1_MEMBER_8_FILL"/>
</g>

<g transform="matrix( 0.6048736572265625, 0, 0, 0.6048736572265625, 23.2,4.8) ">
<use xlink:href="#Layer0_2_MEMBER_0_FILL"/>
</g>

<g transform="matrix( 0.6048736572265625, 0, 0, 0.6048736572265625, 23.2,4.8) ">
<use xlink:href="#Layer0_2_MEMBER_1_FILL"/>
</g>

<g transform="matrix( 0.6048736572265625, 0, 0, 0.6048736572265625, 23.2,4.8) ">
<use xlink:href="#Layer0_2_MEMBER_2_FILL"/>
</g>

<g transform="matrix( 0.6048736572265625, 0, 0, 0.6048736572265625, 23.2,4.8) ">
<use xlink:href="#Layer0_2_MEMBER_3_FILL"/>
</g>

<g transform="matrix( 0.6048736572265625, 0, 0, 0.6048736572265625, 23.2,4.8) ">
<use xlink:href="#Layer0_2_MEMBER_4_FILL"/>
</g>

<g transform="matrix( 0.6048736572265625, 0, 0, 0.6048736572265625, 23.2,4.8) ">
<use xlink:href="#Layer0_2_MEMBER_5_FILL"/>
</g>

<g transform="matrix( 0.6048736572265625, 0, 0, 0.6048736572265625, 23.2,4.8) ">
<use xlink:href="#Layer0_2_MEMBER_6_FILL"/>
</g>

<g transform="matrix( 0.6048736572265625, 0, 0, 0.6048736572265625, 23.2,4.8) ">
<use xlink:href="#Layer0_2_MEMBER_7_FILL"/>
</g>

<g transform="matrix( 0.6048736572265625, 0, 0, 0.6048736572265625, 23.2,4.8) ">
<use xlink:href="#Layer0_2_MEMBER_8_FILL"/>
</g>

<g transform="matrix( 0.6048736572265625, 0, 0, 0.6048736572265625, 23.2,4.8) ">
<use xlink:href="#Layer0_2_MEMBER_9_FILL"/>
</g>

<g transform="matrix( 0.6048736572265625, 0, 0, 0.6048736572265625, 23.2,4.8) ">
<use xlink:href="#Layer0_2_MEMBER_10_FILL"/>
</g>
</svg>
