
<svg xmlns="http://www.w3.org/2000/svg" version="1.1" xmlns:xlink="http://www.w3.org/1999/xlink" preserveAspectRatio="none" x="0px" y="0px" width="160px" height="600px" viewBox="0 0 160 600">
<defs>
<g id="FL_160x600_psd_Asset_Urgency_01_Laptop_2_0_Layer0_0_MEMBER_0_FILL">
<path fill="#7EBA41" stroke="none" d="
M 26.35 -61.95
Q 16.45 -61.95 10.85 -57.05 5.1 -52.05 5.1 -42.75
L 5.1 -40.95 19.25 -40.95 19.25 -42.05
Q 19.25 -49.85 26.45 -49.85 29.6 -49.85 31.5 -48.15 33.5 -46.4 33.5 -43.3 33.5 -40.85 32.15 -38.5 31 -36.55 28.45 -34.1
L 4.5 -11.2 4.5 0 47.6 0 47.6 -12.05 22.7 -12.05 35.3 -22.7
Q 41.6 -28 44.25 -31.6 48.2 -37.05 48.2 -43.35 48.2 -51.8 42.2 -56.9 36.2 -61.95 26.35 -61.95 Z"/>
</g>

<g id="FL_160x600_psd_Asset_Urgency_01_Laptop_Calendar_May_0_Layer0_0_MEMBER_0_FILL">
<path fill="#FFFFFF" stroke="none" d="
M 26.15 -30.7
L 18.05 -14 10 -30.7 3.05 -30.7 3.05 0 10.3 0 10.3 -16.2 15.1 -6.85 21.05 -6.85 25.85 -16.2 25.85 0 33.1 0 33.1 -30.7 26.15 -30.7 Z"/>
</g>

<g id="FL_160x600_psd_Asset_Urgency_01_Laptop_Calendar_May_0_Layer0_0_MEMBER_1_FILL">
<path fill="#FFFFFF" stroke="none" d="
M 46.3 -5.7
L 57.4 -5.7 59.15 0 66.7 0 55.7 -30.7 48 -30.7 37.05 0 44.6 0 46.3 -5.7
M 48.15 -11.75
L 51.85 -23.9 55.55 -11.75 48.15 -11.75 Z"/>
</g>

<g id="FL_160x600_psd_Asset_Urgency_01_Laptop_Calendar_May_0_Layer0_0_MEMBER_2_FILL">
<path fill="#FFFFFF" stroke="none" d="
M 63.9 -30.7
L 74.2 -10.75 74.2 0 81.7 0 81.7 -10.75 92.05 -30.7 83.85 -30.7 77.95 -17.95 72.1 -30.7 63.9 -30.7 Z"/>
</g>
</defs>

<g transform="matrix( 1, 0, 0, 1, -109,-309) ">
<g transform="matrix( 1, 0, 0, 1, 0,0) ">
<g transform="matrix( 1, 0, 0, 1, 75,548) ">
<g transform="matrix( 1, 0, 0, 1, 93,45) ">
<g transform="matrix( 0.809539794921875, 0, 0, 0.8131256103515625, -2.95,50.1) ">
<use xlink:href="#FL_160x600_psd_Asset_Urgency_01_Laptop_2_0_Layer0_0_MEMBER_0_FILL"/>
</g>
</g>

<g transform="matrix( 1, 0, 0, 1, 33,5) ">
<g transform="matrix( 1, 0, 0, 1, 57,6) ">
<g transform="matrix( 0.524871826171875, 0, 0, 0.5272064208984375, -1.8,17.2) ">
<use xlink:href="#FL_160x600_psd_Asset_Urgency_01_Laptop_Calendar_May_0_Layer0_0_MEMBER_0_FILL"/>
</g>

<g transform="matrix( 0.524871826171875, 0, 0, 0.5272064208984375, -1.8,17.2) ">
<use xlink:href="#FL_160x600_psd_Asset_Urgency_01_Laptop_Calendar_May_0_Layer0_0_MEMBER_1_FILL"/>
</g>

<g transform="matrix( 0.524871826171875, 0, 0, 0.5272064208984375, -1.8,17.2) ">
<use xlink:href="#FL_160x600_psd_Asset_Urgency_01_Laptop_Calendar_May_0_Layer0_0_MEMBER_2_FILL"/>
</g>
</g>
</g>
</g>
</g>
</g>
</svg>
