
<svg xmlns="http://www.w3.org/2000/svg" version="1.1" xmlns:xlink="http://www.w3.org/1999/xlink" preserveAspectRatio="none" x="0px" y="0px" width="160px" height="600px" viewBox="0 0 160 600">
<defs>
<image id="FL_160x600_psd_Asset_Urgency_04_ALT_BTN_Assets_Arrow" x="0" y="0" width="7" height="11" xlink:href="data:image/png;base64,iVBORw0KGgoAAAANSUhEUgAAAAcAAAALCAYAAACzkJeoAAAA7UlEQVQYlWNgYGBgeP/+vcKv
X7/iGBgYmBiQwd27d/n//Pmz8///f/9///5djiL5aGeP3c/Xt/5DwN//v379SoFL7smWFr49
zXb/z3f3INJ/f///9etXOlzBtlwVvjtz/Q78ePfoPwz8+vUrFa7gxcl5Tt9e3voKk3x7dtkO
BgYGBobbt2/z/fnz58Dfv3/////////L3Y3/LzWqpTI8efJE+M+fP/thOl4d6vt/qVEDYuej
jdV2359f+f//////707P/3+xSQ3uWmYvvqcfWL9fMvr7+Znyq6PTKnSrbkxG8evxBgWFK61q
GCEEAJYoobsEI4JVAAAAAElFTkSuQmCC"/>

<g id="FL_160x600_psd_Asset_Urgency_04_ALT_BTN_beat_the_deadline_0_Layer0_0_MEMBER_0_FILL">
<path fill="#FFFFFF" stroke="none" d="
M 4.6 -5.35
Q 4.15 -5.8 3.35 -5.8
L 0.6 -5.8 0.6 0 3.4 0
Q 4.3 0 4.85 -0.45 5.4 -0.9 5.4 -1.65 5.4 -2.75 4.25 -3 5.05 -3.45 5.05 -4.3 5.05 -4.95 4.6 -5.35
M 3.6 -4.1
Q 3.6 -3.5 3.05 -3.5
L 2 -3.5 2 -4.7 3 -4.7
Q 3.6 -4.7 3.6 -4.1
M 2 -1.1
L 2 -2.4 3.3 -2.4
Q 4 -2.4 4 -1.75 4 -1.1 3.35 -1.1
L 2 -1.1 Z"/>
</g>

<g id="FL_160x600_psd_Asset_Urgency_04_ALT_BTN_beat_the_deadline_0_Layer0_0_MEMBER_1_FILL">
<path fill="#FFFFFF" stroke="none" d="
M 7.5 -3.55
L 7.5 -4.6 10.3 -4.6 10.3 -5.8 6.05 -5.8 6.05 0 10.3 0 10.3 -1.2 7.5 -1.2 7.5 -2.35 10.05 -2.35 10.05 -3.55 7.5 -3.55 Z"/>
</g>

<g id="FL_160x600_psd_Asset_Urgency_04_ALT_BTN_beat_the_deadline_0_Layer0_0_MEMBER_2_FILL">
<path fill="#FFFFFF" stroke="none" d="
M 12.45 -1.1
L 14.55 -1.1 14.85 0 16.3 0 14.2 -5.8 12.75 -5.8 10.7 0 12.1 0 12.45 -1.1
M 12.8 -2.2
L 13.5 -4.5 14.2 -2.2 12.8 -2.2 Z"/>
</g>

<g id="FL_160x600_psd_Asset_Urgency_04_ALT_BTN_beat_the_deadline_0_Layer0_0_MEMBER_3_FILL">
<path fill="#FFFFFF" stroke="none" d="
M 20.5 -5.8
L 15.95 -5.8 15.95 -4.6 17.5 -4.6 17.5 0 18.9 0 18.9 -4.6 20.5 -4.6 20.5 -5.8 Z"/>
</g>

<g id="FL_160x600_psd_Asset_Urgency_04_ALT_BTN_beat_the_deadline_0_Layer0_0_MEMBER_4_FILL">
<path fill="#FFFFFF" stroke="none" d="
M 26.65 -5.8
L 22.1 -5.8 22.1 -4.6 23.65 -4.6 23.65 0 25.1 0 25.1 -4.6 26.65 -4.6 26.65 -5.8 Z"/>
</g>

<g id="FL_160x600_psd_Asset_Urgency_04_ALT_BTN_beat_the_deadline_0_Layer0_0_MEMBER_5_FILL">
<path fill="#FFFFFF" stroke="none" d="
M 28.65 -2.25
L 30.7 -2.25 30.7 0 32.1 0 32.1 -5.8 30.7 -5.8 30.7 -3.55 28.65 -3.55 28.65 -5.8 27.25 -5.8 27.25 0 28.65 0 28.65 -2.25 Z"/>
</g>

<g id="FL_160x600_psd_Asset_Urgency_04_ALT_BTN_beat_the_deadline_0_Layer0_0_MEMBER_6_FILL">
<path fill="#FFFFFF" stroke="none" d="
M 34.5 -1.2
L 34.5 -2.35 37.05 -2.35 37.05 -3.55 34.5 -3.55 34.5 -4.6 37.3 -4.6 37.3 -5.8 33.1 -5.8 33.1 0 37.3 0 37.3 -1.2 34.5 -1.2 Z"/>
</g>

<g id="FL_160x600_psd_Asset_Urgency_04_ALT_BTN_beat_the_deadline_0_Layer0_0_MEMBER_7_FILL">
<path fill="#FFFFFF" stroke="none" d="
M 44.65 -3.5
Q 44.65 -5.8 42.25 -5.8
L 39.7 -5.8 39.7 0 42.25 0
Q 44.65 0 44.65 -2.3
L 44.65 -3.5
M 43.2 -3.5
L 43.2 -2.3
Q 43.2 -1.15 41.95 -1.15
L 41.1 -1.15 41.1 -4.65 41.95 -4.65
Q 43.2 -4.65 43.2 -3.5 Z"/>
</g>

<g id="FL_160x600_psd_Asset_Urgency_04_ALT_BTN_beat_the_deadline_0_Layer0_0_MEMBER_8_FILL">
<path fill="#FFFFFF" stroke="none" d="
M 49.65 -1.2
L 46.85 -1.2 46.85 -2.35 49.4 -2.35 49.4 -3.55 46.85 -3.55 46.85 -4.6 49.65 -4.6 49.65 -5.8 45.45 -5.8 45.45 0 49.65 0 49.65 -1.2 Z"/>
</g>

<g id="FL_160x600_psd_Asset_Urgency_04_ALT_BTN_beat_the_deadline_0_Layer0_0_MEMBER_9_FILL">
<path fill="#FFFFFF" stroke="none" d="
M 51.8 -1.1
L 53.9 -1.1 54.25 0 55.65 0 53.6 -5.8 52.1 -5.8 50.05 0 51.45 0 51.8 -1.1
M 52.15 -2.2
L 52.85 -4.5 53.55 -2.2 52.15 -2.2 Z"/>
</g>

<g id="FL_160x600_psd_Asset_Urgency_04_ALT_BTN_beat_the_deadline_0_Layer0_0_MEMBER_10_FILL">
<path fill="#FFFFFF" stroke="none" d="
M 58.75 -5.8
L 56.2 -5.8 56.2 0 58.75 0
Q 61.15 0 61.15 -2.3
L 61.15 -3.5
Q 61.15 -5.8 58.75 -5.8
M 59.75 -2.3
Q 59.75 -1.15 58.5 -1.15
L 57.6 -1.15 57.6 -4.65 58.5 -4.65
Q 59.75 -4.65 59.75 -3.5
L 59.75 -2.3 Z"/>
</g>

<g id="FL_160x600_psd_Asset_Urgency_04_ALT_BTN_beat_the_deadline_0_Layer0_0_MEMBER_11_FILL">
<path fill="#FFFFFF" stroke="none" d="
M 63.35 -5.8
L 61.95 -5.8 61.95 0 65.95 0 65.95 -1.2 63.35 -1.2 63.35 -5.8 Z"/>
</g>

<g id="FL_160x600_psd_Asset_Urgency_04_ALT_BTN_beat_the_deadline_0_Layer0_0_MEMBER_12_FILL">
<path fill="#FFFFFF" stroke="none" d="
M 68.05 -5.8
L 66.65 -5.8 66.65 0 68.05 0 68.05 -5.8 Z"/>
</g>

<g id="FL_160x600_psd_Asset_Urgency_04_ALT_BTN_beat_the_deadline_0_Layer0_0_MEMBER_13_FILL">
<path fill="#FFFFFF" stroke="none" d="
M 70.4 -5.8
L 69.05 -5.8 69.05 0 70.45 0 70.45 -3.4 72.65 0 74 0 74 -5.8 72.6 -5.8 72.6 -2.4 70.4 -5.8 Z"/>
</g>

<g id="FL_160x600_psd_Asset_Urgency_04_ALT_BTN_beat_the_deadline_0_Layer0_0_MEMBER_14_FILL">
<path fill="#FFFFFF" stroke="none" d="
M 79.15 -1.2
L 76.4 -1.2 76.4 -2.35 78.9 -2.35 78.9 -3.55 76.4 -3.55 76.4 -4.6 79.15 -4.6 79.15 -5.8 74.95 -5.8 74.95 0 79.15 0 79.15 -1.2 Z"/>
</g>

<g id="FL_160x600_psd_Asset_Urgency_04_ALT_file_for_free_before_may_2_0_Layer0_0_MEMBER_0_FILL">
<path fill="#FFFFFF" stroke="none" d="
M 3.4 -2
L 3.4 -2.9 1.55 -2.9 1.55 -4.1 3.7 -4.1 3.7 -5 0.4 -5 0.4 0 1.55 0 1.55 -2 3.4 -2 Z"/>
</g>

<g id="FL_160x600_psd_Asset_Urgency_04_ALT_file_for_free_before_may_2_0_Layer0_0_MEMBER_1_FILL">
<path fill="#FFFFFF" stroke="none" d="
M 5.35 -5
L 4.2 -5 4.2 0 5.35 0 5.35 -5 Z"/>
</g>

<g id="FL_160x600_psd_Asset_Urgency_04_ALT_file_for_free_before_may_2_0_Layer0_0_MEMBER_2_FILL">
<path fill="#FFFFFF" stroke="none" d="
M 7.2 -0.9
L 7.2 -5 6.05 -5 6.05 0 9.35 0 9.35 -0.9 7.2 -0.9 Z"/>
</g>

<g id="FL_160x600_psd_Asset_Urgency_04_ALT_file_for_free_before_may_2_0_Layer0_0_MEMBER_3_FILL">
<path fill="#FFFFFF" stroke="none" d="
M 12.7 -2.15
L 12.7 -3 10.95 -3 10.95 -4.1 13.05 -4.1 13.05 -5 9.8 -5 9.8 0 13.05 0 13.05 -0.9 10.95 -0.9 10.95 -2.15 12.7 -2.15 Z"/>
</g>

<g id="FL_160x600_psd_Asset_Urgency_04_ALT_file_for_free_before_may_2_0_Layer0_0_MEMBER_4_FILL">
<path fill="#FFFFFF" stroke="none" d="
M 18.05 -2
L 18.05 -2.9 16.25 -2.9 16.25 -4.1 18.4 -4.1 18.4 -5 15.1 -5 15.1 0 16.25 0 16.25 -2 18.05 -2 Z"/>
</g>

<g id="FL_160x600_psd_Asset_Urgency_04_ALT_file_for_free_before_may_2_0_Layer0_0_MEMBER_5_FILL">
<path fill="#FFFFFF" stroke="none" d="
M 19.3 -4.45
Q 18.75 -3.8 18.75 -2.95
L 18.75 -2.05
Q 18.75 -1.1 19.3 -0.55 19.9 0.05 20.85 0.05 21.8 0.05 22.4 -0.55 22.95 -1.1 22.95 -2.05
L 22.95 -2.95
Q 22.95 -3.85 22.35 -4.45 21.85 -5.05 20.85 -5.05 19.9 -5.05 19.3 -4.45
M 19.9 -2.95
Q 19.9 -3.55 20.15 -3.8 20.35 -4.15 20.85 -4.15 21.35 -4.15 21.55 -3.8 21.8 -3.45 21.8 -2.95
L 21.8 -2.05
Q 21.8 -1.55 21.55 -1.15 21.3 -0.8 20.85 -0.8 20.4 -0.8 20.15 -1.15 19.9 -1.45 19.9 -2.05
L 19.9 -2.95 Z"/>
</g>

<g id="FL_160x600_psd_Asset_Urgency_04_ALT_file_for_free_before_may_2_0_Layer0_0_MEMBER_6_FILL">
<path fill="#FFFFFF" stroke="none" d="
M 24.65 -1.9
L 25.25 -1.9
Q 25.65 -1.9 25.8 -1.7 26 -1.55 26 -1.2
L 26.05 -0.35
Q 26.05 -0.15 26.2 0
L 27.4 0 27.4 -0.05 27.2 -0.4 27.15 -0.85 27.15 -1.2
Q 27.15 -1.7 26.95 -1.95 26.7 -2.3 26.3 -2.35
L 26.9 -2.8
Q 27.1 -3.05 27.1 -3.5 27.1 -4.15 26.6 -4.6 26.05 -5 25.2 -5
L 23.5 -5 23.5 0 24.65 0 24.65 -1.9
M 24.65 -2.8
L 24.65 -4.1 25.2 -4.1
Q 25.6 -4.1 25.75 -3.9 25.95 -3.75 25.95 -3.4 25.95 -3.1 25.75 -2.95 25.6 -2.8 25.25 -2.8
L 24.65 -2.8 Z"/>
</g>

<g id="FL_160x600_psd_Asset_Urgency_04_ALT_file_for_free_before_may_2_0_Layer0_0_MEMBER_7_FILL">
<path fill="#FFFFFF" stroke="none" d="
M 32.35 -2
L 32.35 -2.9 30.5 -2.9 30.5 -4.1 32.7 -4.1 32.7 -5 29.35 -5 29.35 0 30.5 0 30.5 -2 32.35 -2 Z"/>
</g>

<g id="FL_160x600_psd_Asset_Urgency_04_ALT_file_for_free_before_may_2_0_Layer0_0_MEMBER_8_FILL">
<path fill="#FFFFFF" stroke="none" d="
M 34.25 -1.9
L 34.85 -1.9
Q 35.25 -1.9 35.4 -1.7 35.6 -1.55 35.6 -1.2
L 35.65 -0.35
Q 35.65 -0.15 35.8 0
L 37 0 37 -0.05 36.8 -0.4 36.75 -0.85 36.75 -1.2
Q 36.75 -1.7 36.55 -1.95 36.3 -2.3 35.9 -2.35
L 36.5 -2.8
Q 36.7 -3.05 36.7 -3.5 36.7 -4.15 36.2 -4.6 35.65 -5 34.8 -5
L 33.1 -5 33.1 0 34.25 0 34.25 -1.9
M 34.25 -2.8
L 34.25 -4.1 34.8 -4.1
Q 35.2 -4.1 35.35 -3.9 35.55 -3.75 35.55 -3.4 35.55 -3.1 35.35 -2.95 35.2 -2.8 34.85 -2.8
L 34.25 -2.8 Z"/>
</g>

<g id="FL_160x600_psd_Asset_Urgency_04_ALT_file_for_free_before_may_2_0_Layer0_0_MEMBER_9_FILL">
<path fill="#FFFFFF" stroke="none" d="
M 40.3 -2.15
L 40.3 -3 38.55 -3 38.55 -4.1 40.65 -4.1 40.65 -5 37.4 -5 37.4 0 40.65 0 40.65 -0.9 38.55 -0.9 38.55 -2.15 40.3 -2.15 Z"/>
</g>

<g id="FL_160x600_psd_Asset_Urgency_04_ALT_file_for_free_before_may_2_0_Layer0_0_MEMBER_10_FILL">
<path fill="#FFFFFF" stroke="none" d="
M 44.4 -4.1
L 44.4 -5 41.1 -5 41.1 0 44.35 0 44.35 -0.9 42.25 -0.9 42.25 -2.15 44 -2.15 44 -3 42.25 -3 42.25 -4.1 44.4 -4.1 Z"/>
</g>

<g id="FL_160x600_psd_Asset_Urgency_04_ALT_file_for_free_before_may_2_0_Layer0_0_MEMBER_11_FILL">
<path fill="#FFFFFF" stroke="none" d="
M 2.05 2
L 0.4 2 0.4 7 2.3 7
Q 3.2 7 3.7 6.65 4.2 6.25 4.2 5.55 4.2 5.2 3.95 4.85 3.8 4.55 3.3 4.45 3.6 4.35 3.85 4 4 3.8 4 3.4 4 2.75 3.45 2.35 2.95 2 2.05 2
M 1.55 2.9
L 2.05 2.9
Q 2.45 2.9 2.65 3.05 2.85 3.25 2.85 3.5 2.85 3.75 2.65 3.95 2.45 4.1 2 4.1
L 1.55 4.1 1.55 2.9
M 1.55 4.85
L 2.35 4.85
Q 2.65 4.85 2.85 5.05 3.05 5.2 3.05 5.5 3.05 5.75 2.85 5.95 2.7 6.1 2.3 6.1
L 1.55 6.1 1.55 4.85 Z"/>
</g>

<g id="FL_160x600_psd_Asset_Urgency_04_ALT_file_for_free_before_may_2_0_Layer0_0_MEMBER_12_FILL">
<path fill="#FFFFFF" stroke="none" d="
M 7.6 4.85
L 7.6 4 5.85 4 5.85 2.9 7.95 2.9 7.95 2 4.7 2 4.7 7 7.95 7 7.95 6.1 5.85 6.1 5.85 4.85 7.6 4.85 Z"/>
</g>

<g id="FL_160x600_psd_Asset_Urgency_04_ALT_file_for_free_before_may_2_0_Layer0_0_MEMBER_13_FILL">
<path fill="#FFFFFF" stroke="none" d="
M 11.4 5
L 11.4 4.1 9.6 4.1 9.6 2.9 11.75 2.9 11.75 2 8.4 2 8.4 7 9.6 7 9.6 5 11.4 5 Z"/>
</g>

<g id="FL_160x600_psd_Asset_Urgency_04_ALT_file_for_free_before_may_2_0_Layer0_0_MEMBER_14_FILL">
<path fill="#FFFFFF" stroke="none" d="
M 16.3 4.95
L 16.3 4.05
Q 16.3 3.15 15.7 2.55 15.1 1.95 14.2 1.95 13.25 1.95 12.65 2.55 12.05 3.15 12.05 4.05
L 12.05 4.95
Q 12.05 5.9 12.65 6.5 13.25 7.1 14.2 7.1 15.1 7.1 15.7 6.5 16.3 5.9 16.3 4.95
M 15.15 4.05
L 15.15 4.95
Q 15.15 5.45 14.9 5.85 14.65 6.2 14.2 6.2 13.8 6.2 13.45 5.85 13.2 5.45 13.2 4.95
L 13.2 4.05
Q 13.2 3.55 13.45 3.2 13.75 2.85 14.2 2.85 14.6 2.85 14.9 3.2 15.15 3.55 15.15 4.05 Z"/>
</g>

<g id="FL_160x600_psd_Asset_Urgency_04_ALT_file_for_free_before_may_2_0_Layer0_0_MEMBER_15_FILL">
<path fill="#FFFFFF" stroke="none" d="
M 20.25 4.2
Q 20.45 3.8 20.45 3.5 20.45 2.85 19.95 2.45 19.45 2 18.55 2
L 16.85 2 16.85 7 18 7 18 5.1 18.6 5.1
Q 19 5.1 19.15 5.3 19.35 5.45 19.35 5.85
L 19.35 6.15 19.4 6.65
Q 19.4 6.95 19.55 7
L 20.75 7 20.75 6.95 20.55 6.6 20.5 6.15 20.5 5.8
Q 20.5 5.3 20.3 5.05 20.05 4.7 19.65 4.65
L 20.25 4.2
M 18 2.9
L 18.55 2.9
Q 18.8 2.9 19.1 3.1 19.3 3.3 19.3 3.6 19.3 3.85 19.1 4.05 18.95 4.2 18.55 4.2
L 18 4.2 18 2.9 Z"/>
</g>

<g id="FL_160x600_psd_Asset_Urgency_04_ALT_file_for_free_before_may_2_0_Layer0_0_MEMBER_16_FILL">
<path fill="#FFFFFF" stroke="none" d="
M 24.4 2.9
L 24.4 2 21.1 2 21.1 7 24.4 7 24.4 6.1 22.25 6.1 22.25 4.85 24.05 4.85 24.05 4 22.25 4 22.25 2.9 24.4 2.9 Z"/>
</g>

<g id="FL_160x600_psd_Asset_Urgency_04_ALT_file_for_free_before_may_2_0_Layer0_0_MEMBER_17_FILL">
<path fill="#FFFFFF" stroke="none" d="
M 31.75 7
L 31.75 2 30.2 2 29.05 5.5 27.95 2 26.4 2 26.4 7 27.6 7 27.6 3.85 28.7 7 29.45 7 30.55 3.8 30.55 7 31.75 7 Z"/>
</g>

<g id="FL_160x600_psd_Asset_Urgency_04_ALT_file_for_free_before_may_2_0_Layer0_0_MEMBER_18_FILL">
<path fill="#FFFFFF" stroke="none" d="
M 34.9 2
L 33.65 2 32.05 7 33.25 7 33.55 6.05 35 6.05 35.3 7 36.5 7 34.9 2
M 33.8 5.15
L 34.25 3.6 34.3 3.6 34.75 5.15 33.8 5.15 Z"/>
</g>

<g id="FL_160x600_psd_Asset_Urgency_04_ALT_file_for_free_before_may_2_0_Layer0_0_MEMBER_19_FILL">
<path fill="#FFFFFF" stroke="none" d="
M 37.85 4.2
L 36.9 2 35.6 2 37.3 5.2 37.3 7 38.45 7 38.45 5.25 40.15 2 38.9 2 37.9 4.2 37.85 4.2 Z"/>
</g>

<g id="FL_160x600_psd_Asset_Urgency_04_ALT_file_for_free_before_may_2_0_Layer0_0_MEMBER_20_FILL">
<path fill="#FFFFFF" stroke="none" d="
M 43.45 2.85
Q 43.7 2.85 43.85 3 44 3.15 44 3.45
L 43.85 3.95 43.4 4.55 41.85 6.25 41.85 7 45.3 7 45.3 6.1 43.4 6.1 44 5.35
Q 44.7 4.7 44.9 4.3 45.15 3.9 45.15 3.45 45.15 2.75 44.7 2.35 44.2 1.95 43.45 1.95 42.65 1.95 42.2 2.45 41.65 2.9 41.75 3.6
L 41.75 3.65 42.85 3.65
Q 42.85 3.3 43 3.05 43.15 2.85 43.45 2.85 Z"/>
</g>
</defs>

<g transform="matrix( 1, 0, 0, 1, -109,-309) ">
<g transform="matrix( 1, 0, 0, 1, 0,0) ">
<g transform="matrix( 1, 0, 0, 1, 120,468) ">
<g transform="matrix( 1, 0, 0, 1, 12,8) ">
<g transform="matrix( 1.3364410400390625, 0, 0, 1.3377532958984375, -0.6,8.1) ">
<use xlink:href="#FL_160x600_psd_Asset_Urgency_04_ALT_BTN_beat_the_deadline_0_Layer0_0_MEMBER_0_FILL"/>
</g>

<g transform="matrix( 1.3364410400390625, 0, 0, 1.3377532958984375, -0.6,8.1) ">
<use xlink:href="#FL_160x600_psd_Asset_Urgency_04_ALT_BTN_beat_the_deadline_0_Layer0_0_MEMBER_1_FILL"/>
</g>

<g transform="matrix( 1.3364410400390625, 0, 0, 1.3377532958984375, -0.6,8.1) ">
<use xlink:href="#FL_160x600_psd_Asset_Urgency_04_ALT_BTN_beat_the_deadline_0_Layer0_0_MEMBER_2_FILL"/>
</g>

<g transform="matrix( 1.3364410400390625, 0, 0, 1.3377532958984375, -0.6,8.1) ">
<use xlink:href="#FL_160x600_psd_Asset_Urgency_04_ALT_BTN_beat_the_deadline_0_Layer0_0_MEMBER_3_FILL"/>
</g>

<g transform="matrix( 1.3364410400390625, 0, 0, 1.3377532958984375, -0.6,8.1) ">
<use xlink:href="#FL_160x600_psd_Asset_Urgency_04_ALT_BTN_beat_the_deadline_0_Layer0_0_MEMBER_4_FILL"/>
</g>

<g transform="matrix( 1.3364410400390625, 0, 0, 1.3377532958984375, -0.6,8.1) ">
<use xlink:href="#FL_160x600_psd_Asset_Urgency_04_ALT_BTN_beat_the_deadline_0_Layer0_0_MEMBER_5_FILL"/>
</g>

<g transform="matrix( 1.3364410400390625, 0, 0, 1.3377532958984375, -0.6,8.1) ">
<use xlink:href="#FL_160x600_psd_Asset_Urgency_04_ALT_BTN_beat_the_deadline_0_Layer0_0_MEMBER_6_FILL"/>
</g>

<g transform="matrix( 1.3364410400390625, 0, 0, 1.3377532958984375, -0.6,8.1) ">
<use xlink:href="#FL_160x600_psd_Asset_Urgency_04_ALT_BTN_beat_the_deadline_0_Layer0_0_MEMBER_7_FILL"/>
</g>

<g transform="matrix( 1.3364410400390625, 0, 0, 1.3377532958984375, -0.6,8.1) ">
<use xlink:href="#FL_160x600_psd_Asset_Urgency_04_ALT_BTN_beat_the_deadline_0_Layer0_0_MEMBER_8_FILL"/>
</g>

<g transform="matrix( 1.3364410400390625, 0, 0, 1.3377532958984375, -0.6,8.1) ">
<use xlink:href="#FL_160x600_psd_Asset_Urgency_04_ALT_BTN_beat_the_deadline_0_Layer0_0_MEMBER_9_FILL"/>
</g>

<g transform="matrix( 1.3364410400390625, 0, 0, 1.3377532958984375, -0.6,8.1) ">
<use xlink:href="#FL_160x600_psd_Asset_Urgency_04_ALT_BTN_beat_the_deadline_0_Layer0_0_MEMBER_10_FILL"/>
</g>

<g transform="matrix( 1.3364410400390625, 0, 0, 1.3377532958984375, -0.6,8.1) ">
<use xlink:href="#FL_160x600_psd_Asset_Urgency_04_ALT_BTN_beat_the_deadline_0_Layer0_0_MEMBER_11_FILL"/>
</g>

<g transform="matrix( 1.3364410400390625, 0, 0, 1.3377532958984375, -0.6,8.1) ">
<use xlink:href="#FL_160x600_psd_Asset_Urgency_04_ALT_BTN_beat_the_deadline_0_Layer0_0_MEMBER_12_FILL"/>
</g>

<g transform="matrix( 1.3364410400390625, 0, 0, 1.3377532958984375, -0.6,8.1) ">
<use xlink:href="#FL_160x600_psd_Asset_Urgency_04_ALT_BTN_beat_the_deadline_0_Layer0_0_MEMBER_13_FILL"/>
</g>

<g transform="matrix( 1.3364410400390625, 0, 0, 1.3377532958984375, -0.6,8.1) ">
<use xlink:href="#FL_160x600_psd_Asset_Urgency_04_ALT_BTN_beat_the_deadline_0_Layer0_0_MEMBER_14_FILL"/>
</g>
</g>

<g transform="matrix( 1, 0, 0, 1, 122,7) ">
<g transform="matrix( 1, 0, 0, 1, 0,0) ">
<use xlink:href="#FL_160x600_psd_Asset_Urgency_04_ALT_BTN_Assets_Arrow"/>
</g>
</g>
</g>

<g transform="matrix( 1, 0, 0, 1, 121,416) ">
<g transform="matrix( 2.9449920654296875, 0, 0, 2.9447479248046875, -1.15,15.3) ">
<use xlink:href="#FL_160x600_psd_Asset_Urgency_04_ALT_file_for_free_before_may_2_0_Layer0_0_MEMBER_0_FILL"/>
</g>

<g transform="matrix( 2.9449920654296875, 0, 0, 2.9447479248046875, -1.15,15.3) ">
<use xlink:href="#FL_160x600_psd_Asset_Urgency_04_ALT_file_for_free_before_may_2_0_Layer0_0_MEMBER_1_FILL"/>
</g>

<g transform="matrix( 2.9449920654296875, 0, 0, 2.9447479248046875, -1.15,15.3) ">
<use xlink:href="#FL_160x600_psd_Asset_Urgency_04_ALT_file_for_free_before_may_2_0_Layer0_0_MEMBER_2_FILL"/>
</g>

<g transform="matrix( 2.9449920654296875, 0, 0, 2.9447479248046875, -1.15,15.3) ">
<use xlink:href="#FL_160x600_psd_Asset_Urgency_04_ALT_file_for_free_before_may_2_0_Layer0_0_MEMBER_3_FILL"/>
</g>

<g transform="matrix( 2.9449920654296875, 0, 0, 2.9447479248046875, -1.15,15.3) ">
<use xlink:href="#FL_160x600_psd_Asset_Urgency_04_ALT_file_for_free_before_may_2_0_Layer0_0_MEMBER_4_FILL"/>
</g>

<g transform="matrix( 2.9449920654296875, 0, 0, 2.9447479248046875, -1.15,15.3) ">
<use xlink:href="#FL_160x600_psd_Asset_Urgency_04_ALT_file_for_free_before_may_2_0_Layer0_0_MEMBER_5_FILL"/>
</g>

<g transform="matrix( 2.9449920654296875, 0, 0, 2.9447479248046875, -1.15,15.3) ">
<use xlink:href="#FL_160x600_psd_Asset_Urgency_04_ALT_file_for_free_before_may_2_0_Layer0_0_MEMBER_6_FILL"/>
</g>

<g transform="matrix( 2.9449920654296875, 0, 0, 2.9447479248046875, -1.15,15.3) ">
<use xlink:href="#FL_160x600_psd_Asset_Urgency_04_ALT_file_for_free_before_may_2_0_Layer0_0_MEMBER_7_FILL"/>
</g>

<g transform="matrix( 2.9449920654296875, 0, 0, 2.9447479248046875, -1.15,15.3) ">
<use xlink:href="#FL_160x600_psd_Asset_Urgency_04_ALT_file_for_free_before_may_2_0_Layer0_0_MEMBER_8_FILL"/>
</g>

<g transform="matrix( 2.9449920654296875, 0, 0, 2.9447479248046875, -1.15,15.3) ">
<use xlink:href="#FL_160x600_psd_Asset_Urgency_04_ALT_file_for_free_before_may_2_0_Layer0_0_MEMBER_9_FILL"/>
</g>

<g transform="matrix( 2.9449920654296875, 0, 0, 2.9447479248046875, -1.15,15.3) ">
<use xlink:href="#FL_160x600_psd_Asset_Urgency_04_ALT_file_for_free_before_may_2_0_Layer0_0_MEMBER_10_FILL"/>
</g>

<g transform="matrix( 2.9449920654296875, 0, 0, 2.9447479248046875, -1.15,15.3) ">
<use xlink:href="#FL_160x600_psd_Asset_Urgency_04_ALT_file_for_free_before_may_2_0_Layer0_0_MEMBER_11_FILL"/>
</g>

<g transform="matrix( 2.9449920654296875, 0, 0, 2.9447479248046875, -1.15,15.3) ">
<use xlink:href="#FL_160x600_psd_Asset_Urgency_04_ALT_file_for_free_before_may_2_0_Layer0_0_MEMBER_12_FILL"/>
</g>

<g transform="matrix( 2.9449920654296875, 0, 0, 2.9447479248046875, -1.15,15.3) ">
<use xlink:href="#FL_160x600_psd_Asset_Urgency_04_ALT_file_for_free_before_may_2_0_Layer0_0_MEMBER_13_FILL"/>
</g>

<g transform="matrix( 2.9449920654296875, 0, 0, 2.9447479248046875, -1.15,15.3) ">
<use xlink:href="#FL_160x600_psd_Asset_Urgency_04_ALT_file_for_free_before_may_2_0_Layer0_0_MEMBER_14_FILL"/>
</g>

<g transform="matrix( 2.9449920654296875, 0, 0, 2.9447479248046875, -1.15,15.3) ">
<use xlink:href="#FL_160x600_psd_Asset_Urgency_04_ALT_file_for_free_before_may_2_0_Layer0_0_MEMBER_15_FILL"/>
</g>

<g transform="matrix( 2.9449920654296875, 0, 0, 2.9447479248046875, -1.15,15.3) ">
<use xlink:href="#FL_160x600_psd_Asset_Urgency_04_ALT_file_for_free_before_may_2_0_Layer0_0_MEMBER_16_FILL"/>
</g>

<g transform="matrix( 2.9449920654296875, 0, 0, 2.9447479248046875, -1.15,15.3) ">
<use xlink:href="#FL_160x600_psd_Asset_Urgency_04_ALT_file_for_free_before_may_2_0_Layer0_0_MEMBER_17_FILL"/>
</g>

<g transform="matrix( 2.9449920654296875, 0, 0, 2.9447479248046875, -1.15,15.3) ">
<use xlink:href="#FL_160x600_psd_Asset_Urgency_04_ALT_file_for_free_before_may_2_0_Layer0_0_MEMBER_18_FILL"/>
</g>

<g transform="matrix( 2.9449920654296875, 0, 0, 2.9447479248046875, -1.15,15.3) ">
<use xlink:href="#FL_160x600_psd_Asset_Urgency_04_ALT_file_for_free_before_may_2_0_Layer0_0_MEMBER_19_FILL"/>
</g>

<g transform="matrix( 2.9449920654296875, 0, 0, 2.9447479248046875, -1.15,15.3) ">
<use xlink:href="#FL_160x600_psd_Asset_Urgency_04_ALT_file_for_free_before_may_2_0_Layer0_0_MEMBER_20_FILL"/>
</g>
</g>
</g>
</g>
</svg>
