
<svg xmlns="http://www.w3.org/2000/svg" version="1.1" xmlns:xlink="http://www.w3.org/1999/xlink" preserveAspectRatio="none" x="0px" y="0px" width="300px" height="250px" viewBox="0 0 300 250">
<defs>
<g id="DIY_300x250_MASTER_Mar22_psd_Asset_Urgency_00_Laptop_Last_few_days_to_file_before__0_Layer0_0_MEMBER_0_FILL">
<path fill="#7FBA00" stroke="none" d="
M 9.9 -28.6
L 2.85 -28.6 2.85 0 22.5 0 22.5 -5.85 9.9 -5.85 9.9 -28.6 Z"/>
</g>

<g id="DIY_300x250_MASTER_Mar22_psd_Asset_Urgency_00_Laptop_Last_few_days_to_file_before__0_Layer0_0_MEMBER_1_FILL">
<path fill="#7FBA00" stroke="none" d="
M 33.9 -5.3
L 44.25 -5.3 45.85 0 52.9 0 42.65 -28.6 35.5 -28.6 25.25 0 32.3 0 33.9 -5.3
M 35.6 -10.95
L 39.1 -22.3 42.5 -10.95 35.6 -10.95 Z"/>
</g>

<g id="DIY_300x250_MASTER_Mar22_psd_Asset_Urgency_00_Laptop_Last_few_days_to_file_before__0_Layer0_0_MEMBER_2_FILL">
<path fill="#7FBA00" stroke="none" d="
M 74 -26.8
Q 71.15 -29.2 66.35 -29.2 61.25 -29.2 58.4 -26.85 55.5 -24.5 55.5 -20.25 55.5 -16.85 57.2 -15 58.75 -13.35 62.25 -12.5
L 69.4 -10.7
Q 71.35 -10.25 71.35 -8.2 71.35 -6.55 70.05 -5.65 68.8 -4.8 66.55 -4.8 61.75 -4.8 61.75 -8.65
L 61.75 -9.25 55 -9.25 55 -8.45
Q 55 -4.2 58.2 -1.8 61.25 0.55 66.5 0.55 71.55 0.55 74.85 -1.95 78.2 -4.55 78.2 -8.8 78.2 -11.85 76.7 -13.7 75.15 -15.6 71.75 -16.5
L 64.15 -18.55
Q 62.35 -19.05 62.35 -20.9 62.35 -23.8 66.35 -23.8 70.35 -23.8 70.35 -20.3
L 70.35 -19.8 76.85 -19.8 76.85 -20.5
Q 76.85 -24.4 74 -26.8 Z"/>
</g>

<g id="DIY_300x250_MASTER_Mar22_psd_Asset_Urgency_00_Laptop_Last_few_days_to_file_before__0_Layer0_0_MEMBER_3_FILL">
<path fill="#7FBA00" stroke="none" d="
M 79.75 -28.6
L 79.75 -22.7 87.45 -22.7 87.45 0 94.5 0 94.5 -22.7 102.25 -22.7 102.25 -28.6 79.75 -28.6 Z"/>
</g>

<g id="DIY_300x250_MASTER_Mar22_psd_Asset_Urgency_00_Laptop_Last_few_days_to_file_before__0_Layer0_0_MEMBER_4_FILL">
<path fill="#7FBA00" stroke="none" d="
M 135.2 -22.75
L 135.2 -28.6 115.1 -28.6 115.1 0 122.15 0 122.15 -10.75 134 -10.75 134 -16.6 122.15 -16.6 122.15 -22.75 135.2 -22.75 Z"/>
</g>

<g id="DIY_300x250_MASTER_Mar22_psd_Asset_Urgency_00_Laptop_Last_few_days_to_file_before__0_Layer0_0_MEMBER_5_FILL">
<path fill="#7FBA00" stroke="none" d="
M 160.25 -5.85
L 146.55 -5.85 146.55 -11.55 159 -11.55 159 -17.4 146.55 -17.4 146.55 -22.75 160.2 -22.75 160.2 -28.6 139.5 -28.6 139.5 0 160.25 0 160.25 -5.85 Z"/>
</g>

<g id="DIY_300x250_MASTER_Mar22_psd_Asset_Urgency_00_Laptop_Last_few_days_to_file_before__0_Layer0_0_MEMBER_6_FILL">
<path fill="#7FBA00" stroke="none" d="
M 190.75 -9.85
L 185.4 -28.6 178.85 -28.6 173.5 -9.85 169.95 -28.6 163.05 -28.6 169.9 0 176.5 0 182.15 -20 187.75 0 194.35 0 201.2 -28.6 194.3 -28.6 190.75 -9.85 Z"/>
</g>

<g id="DIY_300x250_MASTER_Mar22_psd_Asset_Urgency_00_Laptop_Last_few_days_to_file_before__0_Layer0_0_MEMBER_7_FILL">
<path fill="#7FBA00" stroke="none" d="
M 27.3 20.6
Q 27.3 15.5 24.3 12.45 21.1 9.25 15.35 9.25
L 2.85 9.25 2.85 37.85 15.35 37.85
Q 21.1 37.85 24.3 34.65 27.3 31.6 27.3 26.5
L 27.3 20.6
M 9.85 15
L 14.1 15
Q 20.3 15 20.3 20.55
L 20.3 26.55
Q 20.3 32.1 14.1 32.1
L 9.85 32.1 9.85 15 Z"/>
</g>

<g id="DIY_300x250_MASTER_Mar22_psd_Asset_Urgency_00_Laptop_Last_few_days_to_file_before__0_Layer0_0_MEMBER_8_FILL">
<path fill="#7FBA00" stroke="none" d="
M 47.7 32.55
L 49.35 37.85 56.35 37.85 46.15 9.25 38.95 9.25 28.75 37.85 35.75 37.85 37.35 32.55 47.7 32.55
M 42.55 15.6
L 46 26.9 39.1 26.9 42.55 15.6 Z"/>
</g>

<g id="DIY_300x250_MASTER_Mar22_psd_Asset_Urgency_00_Laptop_Last_few_days_to_file_before__0_Layer0_0_MEMBER_9_FILL">
<path fill="#7FBA00" stroke="none" d="
M 80 9.25
L 72.35 9.25 66.85 21.15 61.4 9.25 53.75 9.25 63.35 27.85 63.35 37.85 70.4 37.85 70.4 27.85 80 9.25 Z"/>
</g>

<g id="DIY_300x250_MASTER_Mar22_psd_Asset_Urgency_00_Laptop_Last_few_days_to_file_before__0_Layer0_0_MEMBER_10_FILL">
<path fill="#7FBA00" stroke="none" d="
M 102.8 18.1
L 102.8 17.4
Q 102.8 13.45 99.95 11.1 97.1 8.7 92.3 8.7 87.2 8.7 84.35 11.05 81.45 13.4 81.45 17.65 81.45 21 83.15 22.85 84.7 24.5 88.2 25.35
L 95.35 27.15
Q 97.3 27.6 97.3 29.7 97.3 31.35 96 32.25 94.7 33.1 92.5 33.1 87.7 33.1 87.7 29.2
L 87.7 28.65 80.95 28.65 80.95 29.4
Q 80.95 33.65 84.15 36.1 87.25 38.45 92.45 38.45 97.55 38.45 100.8 35.9 104.15 33.3 104.15 29.1 104.15 26.05 102.65 24.2 101.1 22.25 97.75 21.35
L 90.15 19.3
Q 88.3 18.8 88.3 17 88.3 14.05 92.3 14.05 96.3 14.05 96.3 17.6
L 96.3 18.1 102.8 18.1 Z"/>
</g>

<g id="DIY_300x250_MASTER_Mar22_psd_Asset_Urgency_00_Laptop_Last_few_days_to_file_before__0_Layer0_0_MEMBER_11_FILL">
<path fill="#7FBA00" stroke="none" d="
M 137.15 15.2
L 137.15 9.25 114.65 9.25 114.65 15.2 122.35 15.2 122.35 37.85 129.4 37.85 129.4 15.2 137.15 15.2 Z"/>
</g>

<g id="DIY_300x250_MASTER_Mar22_psd_Asset_Urgency_00_Laptop_Last_few_days_to_file_before__0_Layer0_0_MEMBER_12_FILL">
<path fill="#7FBA00" stroke="none" d="
M 162.45 34.75
Q 165.75 31.25 165.75 25.4
L 165.75 21.7
Q 165.75 15.9 162.45 12.4 158.9 8.7 152.6 8.7 146.3 8.7 142.8 12.4 139.5 15.9 139.5 21.7
L 139.5 25.4
Q 139.5 31.25 142.8 34.75 146.3 38.45 152.6 38.45 158.95 38.45 162.45 34.75
M 157.2 16.4
Q 158.7 18.2 158.7 21.35
L 158.7 25.75
Q 158.7 28.9 157.2 30.7 155.6 32.6 152.6 32.6 149.65 32.6 148.05 30.7 146.55 28.9 146.55 25.75
L 146.55 21.35
Q 146.55 18.2 148.05 16.4 149.65 14.5 152.6 14.5 155.6 14.5 157.2 16.4 Z"/>
</g>

<g id="DIY_300x250_MASTER_Mar22_psd_Asset_Urgency_00_Laptop_Last_few_days_to_file_before__0_Layer0_0_MEMBER_13_FILL">
<path fill="#7FBA00" stroke="none" d="
M 198.45 21.25
L 186.6 21.25 186.6 15.1 199.65 15.1 199.65 9.25 179.55 9.25 179.55 37.85 186.6 37.85 186.6 27.1 198.45 27.1 198.45 21.25 Z"/>
</g>

<g id="DIY_300x250_MASTER_Mar22_psd_Asset_Urgency_00_Laptop_Last_few_days_to_file_before__0_Layer0_0_MEMBER_14_FILL">
<path fill="#7FBA00" stroke="none" d="
M 211.2 37.85
L 211.2 9.25 204.15 9.25 204.15 37.85 211.2 37.85 Z"/>
</g>

<g id="DIY_300x250_MASTER_Mar22_psd_Asset_Urgency_00_Laptop_Last_few_days_to_file_before__0_Layer0_0_MEMBER_15_FILL">
<path fill="#7FBA00" stroke="none" d="
M 224.15 9.25
L 217.1 9.25 217.1 37.85 236.75 37.85 236.75 32 224.15 32 224.15 9.25 Z"/>
</g>

<g id="DIY_300x250_MASTER_Mar22_psd_Asset_Urgency_00_Laptop_Last_few_days_to_file_before__0_Layer0_0_MEMBER_16_FILL">
<path fill="#7FBA00" stroke="none" d="
M 260.55 20.45
L 248.1 20.45 248.1 15.1 261.8 15.1 261.8 9.25 241.05 9.25 241.05 37.85 261.85 37.85 261.85 32 248.1 32 248.1 26.3 260.55 26.3 260.55 20.45 Z"/>
</g>

<g id="DIY_300x250_MASTER_Mar22_psd_Asset_Urgency_00_Laptop_Last_few_days_to_file_before__0_Layer0_0_MEMBER_17_FILL">
<path fill="#7FBA00" stroke="none" d="
M 16.55 47.1
L 2.85 47.1 2.85 75.75 16.7 75.75
Q 21 75.75 23.75 73.55 26.55 71.35 26.55 67.7 26.55 62.45 21.05 60.95 24.8 58.95 24.8 54.45 24.8 51.25 22.7 49.25 20.45 47.1 16.55 47.1
M 17.8 55.45
Q 17.8 58.5 14.95 58.5
L 9.75 58.5 9.75 52.65 14.9 52.65
Q 16.25 52.65 17.05 53.4 17.8 54.15 17.8 55.45
M 9.75 70.2
L 9.75 64 16.35 64
Q 17.9 64 18.75 64.8 19.6 65.6 19.6 67.05 19.6 68.5 18.8 69.3 17.95 70.2 16.45 70.2
L 9.75 70.2 Z"/>
</g>

<g id="DIY_300x250_MASTER_Mar22_psd_Asset_Urgency_00_Laptop_Last_few_days_to_file_before__0_Layer0_0_MEMBER_18_FILL">
<path fill="#7FBA00" stroke="none" d="
M 37.95 58.3
L 37.95 52.95 51.6 52.95 51.6 47.1 30.9 47.1 30.9 75.75 51.65 75.75 51.65 69.9 37.95 69.9 37.95 64.15 50.4 64.15 50.4 58.3 37.95 58.3 Z"/>
</g>

<g id="DIY_300x250_MASTER_Mar22_psd_Asset_Urgency_00_Laptop_Last_few_days_to_file_before__0_Layer0_0_MEMBER_19_FILL">
<path fill="#7FBA00" stroke="none" d="
M 76.6 47.1
L 56.5 47.1 56.5 75.75 63.5 75.75 63.5 65 75.35 65 75.35 59.15 63.5 59.15 63.5 52.95 76.6 52.95 76.6 47.1 Z"/>
</g>

<g id="DIY_300x250_MASTER_Mar22_psd_Asset_Urgency_00_Laptop_Last_few_days_to_file_before__0_Layer0_0_MEMBER_20_FILL">
<path fill="#7FBA00" stroke="none" d="
M 106.15 63.25
L 106.15 59.6
Q 106.15 53.75 102.85 50.25 99.35 46.55 93.05 46.55 86.75 46.55 83.2 50.25 79.9 53.75 79.9 59.6
L 79.9 63.25
Q 79.9 69.1 83.2 72.6 86.75 76.3 93.05 76.3 99.35 76.3 102.85 72.6 106.15 69.1 106.15 63.25
M 97.6 54.3
Q 99.1 56.05 99.1 59.2
L 99.1 63.65
Q 99.1 66.8 97.6 68.55 96 70.45 93.05 70.45 90.05 70.45 88.45 68.55 86.95 66.8 86.95 63.65
L 86.95 59.2
Q 86.95 56.05 88.45 54.3 90.05 52.4 93.05 52.4 96 52.4 97.6 54.3 Z"/>
</g>

<g id="DIY_300x250_MASTER_Mar22_psd_Asset_Urgency_00_Laptop_Last_few_days_to_file_before__0_Layer0_0_MEMBER_21_FILL">
<path fill="#7FBA00" stroke="none" d="
M 118 75.75
L 118 67.25 122.6 67.25 127.5 75.75 135.65 75.75 129.8 66.1
Q 132.3 64.9 133.7 62.6 135.15 60.25 135.15 57.2 135.15 52.7 132.4 49.95 129.5 47.1 124.4 47.1
L 110.95 47.1 110.95 75.75 118 75.75
M 118 61.65
L 118 52.75 123.6 52.75
Q 125.75 52.75 126.95 54 128.1 55.2 128.1 57.3 128.1 59.3 126.95 60.45 125.75 61.65 123.6 61.65
L 118 61.65 Z"/>
</g>

<g id="DIY_300x250_MASTER_Mar22_psd_Asset_Urgency_00_Laptop_Last_few_days_to_file_before__0_Layer0_0_MEMBER_22_FILL">
<path fill="#7FBA00" stroke="none" d="
M 160.65 47.1
L 139.95 47.1 139.95 75.75 160.7 75.75 160.7 69.9 147 69.9 147 64.15 159.45 64.15 159.45 58.3 147 58.3 147 52.95 160.65 52.95 160.65 47.1 Z"/>
</g>

<g id="DIY_300x250_MASTER_Mar22_psd_Asset_Urgency_00_Laptop_Last_few_days_to_file_before__0_Layer0_0_MEMBER_23_FILL">
<path fill="#7FBA00" stroke="none" d="
M 172.2 72.25
Q 172.2 70.65 171.1 69.55 170.05 68.45 168.35 68.45 166.7 68.45 165.6 69.55 164.5 70.65 164.5 72.25 164.5 73.9 165.6 74.95 166.7 76.05 168.35 76.05 170.05 76.05 171.1 74.95 172.2 73.9 172.2 72.25
M 183.55 72.25
Q 183.55 70.65 182.45 69.55 181.4 68.45 179.7 68.45 178.05 68.45 176.95 69.55 175.85 70.65 175.85 72.25 175.85 73.9 176.95 74.95 178.05 76.05 179.7 76.05 181.4 76.05 182.45 74.95 183.55 73.9 183.55 72.25
M 188.35 69.55
Q 187.25 70.65 187.25 72.25 187.25 73.9 188.35 74.95 189.45 76.05 191.1 76.05 192.75 76.05 193.85 74.95 194.9 73.9 194.9 72.25 194.9 70.6 193.85 69.55 192.75 68.45 191.1 68.45 189.45 68.45 188.35 69.55 Z"/>
</g>
</defs>

<g transform="matrix( 1, 0, 0, 1, -207,-25) ">
<g transform="matrix( 1, 0, 0, 1, 191,0) ">
<g transform="matrix( 1, 0, 0, 1, 20,39) ">
<g transform="matrix( 1, 0, 0, 1, 59,38) ">
<g transform="matrix( 0.66973876953125, 0, 0, 0.672821044921875, -1.6,19.65) ">
<use xlink:href="#DIY_300x250_MASTER_Mar22_psd_Asset_Urgency_00_Laptop_Last_few_days_to_file_before__0_Layer0_0_MEMBER_0_FILL"/>
</g>

<g transform="matrix( 0.66973876953125, 0, 0, 0.672821044921875, -1.6,19.65) ">
<use xlink:href="#DIY_300x250_MASTER_Mar22_psd_Asset_Urgency_00_Laptop_Last_few_days_to_file_before__0_Layer0_0_MEMBER_1_FILL"/>
</g>

<g transform="matrix( 0.66973876953125, 0, 0, 0.672821044921875, -1.6,19.65) ">
<use xlink:href="#DIY_300x250_MASTER_Mar22_psd_Asset_Urgency_00_Laptop_Last_few_days_to_file_before__0_Layer0_0_MEMBER_2_FILL"/>
</g>

<g transform="matrix( 0.66973876953125, 0, 0, 0.672821044921875, -1.6,19.65) ">
<use xlink:href="#DIY_300x250_MASTER_Mar22_psd_Asset_Urgency_00_Laptop_Last_few_days_to_file_before__0_Layer0_0_MEMBER_3_FILL"/>
</g>

<g transform="matrix( 0.66973876953125, 0, 0, 0.672821044921875, -1.6,19.65) ">
<use xlink:href="#DIY_300x250_MASTER_Mar22_psd_Asset_Urgency_00_Laptop_Last_few_days_to_file_before__0_Layer0_0_MEMBER_4_FILL"/>
</g>

<g transform="matrix( 0.66973876953125, 0, 0, 0.672821044921875, -1.6,19.65) ">
<use xlink:href="#DIY_300x250_MASTER_Mar22_psd_Asset_Urgency_00_Laptop_Last_few_days_to_file_before__0_Layer0_0_MEMBER_5_FILL"/>
</g>

<g transform="matrix( 0.66973876953125, 0, 0, 0.672821044921875, -1.6,19.65) ">
<use xlink:href="#DIY_300x250_MASTER_Mar22_psd_Asset_Urgency_00_Laptop_Last_few_days_to_file_before__0_Layer0_0_MEMBER_6_FILL"/>
</g>

<g transform="matrix( 0.66973876953125, 0, 0, 0.672821044921875, -1.6,19.65) ">
<use xlink:href="#DIY_300x250_MASTER_Mar22_psd_Asset_Urgency_00_Laptop_Last_few_days_to_file_before__0_Layer0_0_MEMBER_7_FILL"/>
</g>

<g transform="matrix( 0.66973876953125, 0, 0, 0.672821044921875, -1.6,19.65) ">
<use xlink:href="#DIY_300x250_MASTER_Mar22_psd_Asset_Urgency_00_Laptop_Last_few_days_to_file_before__0_Layer0_0_MEMBER_8_FILL"/>
</g>

<g transform="matrix( 0.66973876953125, 0, 0, 0.672821044921875, -1.6,19.65) ">
<use xlink:href="#DIY_300x250_MASTER_Mar22_psd_Asset_Urgency_00_Laptop_Last_few_days_to_file_before__0_Layer0_0_MEMBER_9_FILL"/>
</g>

<g transform="matrix( 0.66973876953125, 0, 0, 0.672821044921875, -1.6,19.65) ">
<use xlink:href="#DIY_300x250_MASTER_Mar22_psd_Asset_Urgency_00_Laptop_Last_few_days_to_file_before__0_Layer0_0_MEMBER_10_FILL"/>
</g>

<g transform="matrix( 0.66973876953125, 0, 0, 0.672821044921875, -1.6,19.65) ">
<use xlink:href="#DIY_300x250_MASTER_Mar22_psd_Asset_Urgency_00_Laptop_Last_few_days_to_file_before__0_Layer0_0_MEMBER_11_FILL"/>
</g>

<g transform="matrix( 0.66973876953125, 0, 0, 0.672821044921875, -1.6,19.65) ">
<use xlink:href="#DIY_300x250_MASTER_Mar22_psd_Asset_Urgency_00_Laptop_Last_few_days_to_file_before__0_Layer0_0_MEMBER_12_FILL"/>
</g>

<g transform="matrix( 0.66973876953125, 0, 0, 0.672821044921875, -1.6,19.65) ">
<use xlink:href="#DIY_300x250_MASTER_Mar22_psd_Asset_Urgency_00_Laptop_Last_few_days_to_file_before__0_Layer0_0_MEMBER_13_FILL"/>
</g>

<g transform="matrix( 0.66973876953125, 0, 0, 0.672821044921875, -1.6,19.65) ">
<use xlink:href="#DIY_300x250_MASTER_Mar22_psd_Asset_Urgency_00_Laptop_Last_few_days_to_file_before__0_Layer0_0_MEMBER_14_FILL"/>
</g>

<g transform="matrix( 0.66973876953125, 0, 0, 0.672821044921875, -1.6,19.65) ">
<use xlink:href="#DIY_300x250_MASTER_Mar22_psd_Asset_Urgency_00_Laptop_Last_few_days_to_file_before__0_Layer0_0_MEMBER_15_FILL"/>
</g>

<g transform="matrix( 0.66973876953125, 0, 0, 0.672821044921875, -1.6,19.65) ">
<use xlink:href="#DIY_300x250_MASTER_Mar22_psd_Asset_Urgency_00_Laptop_Last_few_days_to_file_before__0_Layer0_0_MEMBER_16_FILL"/>
</g>

<g transform="matrix( 0.66973876953125, 0, 0, 0.672821044921875, -1.6,19.65) ">
<use xlink:href="#DIY_300x250_MASTER_Mar22_psd_Asset_Urgency_00_Laptop_Last_few_days_to_file_before__0_Layer0_0_MEMBER_17_FILL"/>
</g>

<g transform="matrix( 0.66973876953125, 0, 0, 0.672821044921875, -1.6,19.65) ">
<use xlink:href="#DIY_300x250_MASTER_Mar22_psd_Asset_Urgency_00_Laptop_Last_few_days_to_file_before__0_Layer0_0_MEMBER_18_FILL"/>
</g>

<g transform="matrix( 0.66973876953125, 0, 0, 0.672821044921875, -1.6,19.65) ">
<use xlink:href="#DIY_300x250_MASTER_Mar22_psd_Asset_Urgency_00_Laptop_Last_few_days_to_file_before__0_Layer0_0_MEMBER_19_FILL"/>
</g>

<g transform="matrix( 0.66973876953125, 0, 0, 0.672821044921875, -1.6,19.65) ">
<use xlink:href="#DIY_300x250_MASTER_Mar22_psd_Asset_Urgency_00_Laptop_Last_few_days_to_file_before__0_Layer0_0_MEMBER_20_FILL"/>
</g>

<g transform="matrix( 0.66973876953125, 0, 0, 0.672821044921875, -1.6,19.65) ">
<use xlink:href="#DIY_300x250_MASTER_Mar22_psd_Asset_Urgency_00_Laptop_Last_few_days_to_file_before__0_Layer0_0_MEMBER_21_FILL"/>
</g>

<g transform="matrix( 0.66973876953125, 0, 0, 0.672821044921875, -1.6,19.65) ">
<use xlink:href="#DIY_300x250_MASTER_Mar22_psd_Asset_Urgency_00_Laptop_Last_few_days_to_file_before__0_Layer0_0_MEMBER_22_FILL"/>
</g>

<g transform="matrix( 0.66973876953125, 0, 0, 0.672821044921875, -1.6,19.65) ">
<use xlink:href="#DIY_300x250_MASTER_Mar22_psd_Asset_Urgency_00_Laptop_Last_few_days_to_file_before__0_Layer0_0_MEMBER_23_FILL"/>
</g>
</g>
</g>
</g>
</g>
</svg>
