
<svg xmlns="http://www.w3.org/2000/svg" version="1.1" xmlns:xlink="http://www.w3.org/1999/xlink" preserveAspectRatio="none" x="0px" y="0px" width="300px" height="600px" viewBox="0 0 300 600">
<defs>
<g id="FL_300x600_psd_Asset_Urgency_02_Laptop_free_0_Layer0_0_MEMBER_0_FILL">
<path fill="#FFFFFF" stroke="none" d="
M 30.3 -37.7
L 3.75 -37.7 3.75 0 13.05 0 13.05 -14.15 28.65 -14.15 28.65 -21.85 13.05 -21.85 13.05 -30 30.3 -30 30.3 -37.7 Z"/>
</g>

<g id="FL_300x600_psd_Asset_Urgency_02_Laptop_free_0_Layer0_0_MEMBER_1_FILL">
<path fill="#FFFFFF" stroke="none" d="
M 45.2 -11.2
L 51.3 -11.2 57.7 0 68.5 0 60.75 -12.7
Q 64.1 -14.3 65.95 -17.3 67.8 -20.4 67.8 -24.4 67.8 -30.35 64.15 -33.95 60.35 -37.7 53.65 -37.7
L 35.95 -37.7 35.95 0 45.2 0 45.2 -11.2
M 52.6 -30.3
Q 55.45 -30.3 57 -28.65 58.5 -27.05 58.5 -24.3 58.5 -21.65 57 -20.15 55.45 -18.55 52.6 -18.55
L 45.2 -18.55 45.2 -30.3 52.6 -30.3 Z"/>
</g>

<g id="FL_300x600_psd_Asset_Urgency_02_Laptop_free_0_Layer0_0_MEMBER_2_FILL">
<path fill="#FFFFFF" stroke="none" d="
M 101.45 -30
L 101.45 -37.7 74.15 -37.7 74.15 0 101.5 0 101.5 -7.7 83.4 -7.7 83.4 -15.25 99.85 -15.25 99.85 -22.95 83.4 -22.95 83.4 -30 101.45 -30 Z"/>
</g>

<g id="FL_300x600_psd_Asset_Urgency_02_Laptop_free_0_Layer0_0_MEMBER_3_FILL">
<path fill="#FFFFFF" stroke="none" d="
M 117.15 -22.95
L 117.15 -30 135.2 -30 135.2 -37.7 107.85 -37.7 107.85 0 135.25 0 135.25 -7.7 117.15 -7.7 117.15 -15.25 133.55 -15.25 133.55 -22.95 117.15 -22.95 Z"/>
</g>

<g id="FL_300x600_psd_Asset_Urgency_02_Beat_the_tax_deadline_for_0_Layer0_0_MEMBER_0_FILL">
<path fill="#FFFFFF" stroke="none" d="
M 8.05 -13.95
L 1.4 -13.95 1.4 0 8.15 0
Q 10.25 0 11.6 -1.05 12.95 -2.15 12.95 -3.9 12.95 -6.5 10.25 -7.2 12.1 -8.15 12.1 -10.35 12.1 -11.9 11.05 -12.9 9.95 -13.95 8.05 -13.95
M 7.25 -11.25
Q 8.7 -11.25 8.7 -9.9 8.7 -8.4 7.3 -8.4
L 4.75 -8.4 4.75 -11.25 7.25 -11.25
M 4.75 -2.7
L 4.75 -5.7 7.95 -5.7
Q 9.55 -5.7 9.55 -4.2 9.55 -2.7 8 -2.7
L 4.75 -2.7 Z"/>
</g>

<g id="FL_300x600_psd_Asset_Urgency_02_Beat_the_tax_deadline_for_0_Layer0_0_MEMBER_1_FILL">
<path fill="#FFFFFF" stroke="none" d="
M 18.3 -2.85
L 18.3 -5.65 24.4 -5.65 24.4 -8.5 18.3 -8.5 18.3 -11.1 25 -11.1 25 -13.95 14.9 -13.95 14.9 0 25 0 25 -2.85 18.3 -2.85 Z"/>
</g>

<g id="FL_300x600_psd_Asset_Urgency_02_Beat_the_tax_deadline_for_0_Layer0_0_MEMBER_2_FILL">
<path fill="#FFFFFF" stroke="none" d="
M 30.7 -2.6
L 35.7 -2.6 36.5 0 39.95 0 34.95 -13.95 31.45 -13.95 26.5 0 29.9 0 30.7 -2.6
M 31.5 -5.35
L 33.2 -10.85 34.9 -5.35 31.5 -5.35 Z"/>
</g>

<g id="FL_300x600_psd_Asset_Urgency_02_Beat_the_tax_deadline_for_0_Layer0_0_MEMBER_3_FILL">
<path fill="#FFFFFF" stroke="none" d="
M 39.25 -13.95
L 39.25 -11.05 43.05 -11.05 43.05 0 46.45 0 46.45 -11.05 50.2 -11.05 50.2 -13.95 39.25 -13.95 Z"/>
</g>

<g id="FL_300x600_psd_Asset_Urgency_02_Beat_the_tax_deadline_for_0_Layer0_0_MEMBER_4_FILL">
<path fill="#FFFFFF" stroke="none" d="
M 66.35 -13.95
L 55.4 -13.95 55.4 -11.05 59.15 -11.05 59.15 0 62.6 0 62.6 -11.05 66.35 -11.05 66.35 -13.95 Z"/>
</g>

<g id="FL_300x600_psd_Asset_Urgency_02_Beat_the_tax_deadline_for_0_Layer0_0_MEMBER_5_FILL">
<path fill="#FFFFFF" stroke="none" d="
M 71.5 -5.45
L 76.4 -5.45 76.4 0 79.8 0 79.8 -13.95 76.4 -13.95 76.4 -8.5 71.5 -8.5 71.5 -13.95 68.1 -13.95 68.1 0 71.5 0 71.5 -5.45 Z"/>
</g>

<g id="FL_300x600_psd_Asset_Urgency_02_Beat_the_tax_deadline_for_0_Layer0_0_MEMBER_6_FILL">
<path fill="#FFFFFF" stroke="none" d="
M 85.9 -8.5
L 85.9 -11.1 92.55 -11.1 92.55 -13.95 82.5 -13.95 82.5 0 92.6 0 92.6 -2.85 85.9 -2.85 85.9 -5.65 92 -5.65 92 -8.5 85.9 -8.5 Z"/>
</g>

<g id="FL_300x600_psd_Asset_Urgency_02_Beat_the_tax_deadline_for_0_Layer0_0_MEMBER_7_FILL">
<path fill="#FFFFFF" stroke="none" d="
M 109.2 -13.95
L 98.2 -13.95 98.2 -11.05 102 -11.05 102 0 105.4 0 105.4 -11.05 109.2 -11.05 109.2 -13.95 Z"/>
</g>

<g id="FL_300x600_psd_Asset_Urgency_02_Beat_the_tax_deadline_for_0_Layer0_0_MEMBER_8_FILL">
<path fill="#FFFFFF" stroke="none" d="
M 112.7 -2.6
L 117.75 -2.6 118.55 0 121.95 0 117 -13.95 113.5 -13.95 108.5 0 111.95 0 112.7 -2.6
M 113.55 -5.35
L 115.25 -10.85 116.9 -5.35 113.55 -5.35 Z"/>
</g>

<g id="FL_300x600_psd_Asset_Urgency_02_Beat_the_tax_deadline_for_0_Layer0_0_MEMBER_9_FILL">
<path fill="#FFFFFF" stroke="none" d="
M 131.3 -7.1
L 135.7 -13.95 132.15 -13.95 129.5 -9.85 126.9 -13.95 123.35 -13.95 127.75 -7.1 123.15 0 126.75 0 129.5 -4.3 132.3 0 135.9 0 131.3 -7.1 Z"/>
</g>

<g id="FL_300x600_psd_Asset_Urgency_02_Beat_the_tax_deadline_for_0_Layer0_0_MEMBER_10_FILL">
<path fill="#FFFFFF" stroke="none" d="
M 13.3 11.5
Q 13.3 9 11.85 7.55 10.3 5.95 7.5 5.95
L 1.4 5.95 1.4 19.9 7.5 19.9
Q 10.3 19.9 11.85 18.35 13.3 16.85 13.3 14.35
L 13.3 11.5
M 6.85 8.8
Q 9.9 8.8 9.9 11.5
L 9.9 14.4
Q 9.9 17.1 6.85 17.1
L 4.8 17.1 4.8 8.8 6.85 8.8 Z"/>
</g>

<g id="FL_300x600_psd_Asset_Urgency_02_Beat_the_tax_deadline_for_0_Layer0_0_MEMBER_11_FILL">
<path fill="#FFFFFF" stroke="none" d="
M 24.85 8.8
L 24.85 5.95 14.75 5.95 14.75 19.9 24.9 19.9 24.9 17.05 18.2 17.05 18.2 14.25 24.25 14.25 24.25 11.45 18.2 11.45 18.2 8.8 24.85 8.8 Z"/>
</g>

<g id="FL_300x600_psd_Asset_Urgency_02_Beat_the_tax_deadline_for_0_Layer0_0_MEMBER_12_FILL">
<path fill="#FFFFFF" stroke="none" d="
M 34.05 5.95
L 30.55 5.95 25.55 19.9 29 19.9 29.75 17.3 34.8 17.3 35.6 19.9 39 19.9 34.05 5.95
M 33.95 14.55
L 30.6 14.55 32.3 9.05 33.95 14.55 Z"/>
</g>

<g id="FL_300x600_psd_Asset_Urgency_02_Beat_the_tax_deadline_for_0_Layer0_0_MEMBER_13_FILL">
<path fill="#FFFFFF" stroke="none" d="
M 50.35 7.55
Q 48.8 5.95 46 5.95
L 39.9 5.95 39.9 19.9 46 19.9
Q 48.8 19.9 50.35 18.35 51.85 16.85 51.85 14.35
L 51.85 11.5
Q 51.85 9 50.35 7.55
M 45.4 8.8
Q 48.4 8.8 48.4 11.5
L 48.4 14.4
Q 48.4 17.1 45.4 17.1
L 43.35 17.1 43.35 8.8 45.4 8.8 Z"/>
</g>

<g id="FL_300x600_psd_Asset_Urgency_02_Beat_the_tax_deadline_for_0_Layer0_0_MEMBER_14_FILL">
<path fill="#FFFFFF" stroke="none" d="
M 56.7 5.95
L 53.3 5.95 53.3 19.9 62.85 19.9 62.85 17.05 56.7 17.05 56.7 5.95 Z"/>
</g>

<g id="FL_300x600_psd_Asset_Urgency_02_Beat_the_tax_deadline_for_0_Layer0_0_MEMBER_15_FILL">
<path fill="#FFFFFF" stroke="none" d="
M 67.4 19.9
L 67.4 5.95 63.95 5.95 63.95 19.9 67.4 19.9 Z"/>
</g>

<g id="FL_300x600_psd_Asset_Urgency_02_Beat_the_tax_deadline_for_0_Layer0_0_MEMBER_16_FILL">
<path fill="#FFFFFF" stroke="none" d="
M 81.1 19.9
L 81.1 5.95 77.75 5.95 77.75 14.1 72.55 5.95 69.3 5.95 69.3 19.9 72.65 19.9 72.65 11.75 77.85 19.9 81.1 19.9 Z"/>
</g>

<g id="FL_300x600_psd_Asset_Urgency_02_Beat_the_tax_deadline_for_0_Layer0_0_MEMBER_17_FILL">
<path fill="#FFFFFF" stroke="none" d="
M 93.1 8.8
L 93.1 5.95 83 5.95 83 19.9 93.1 19.9 93.1 17.05 86.4 17.05 86.4 14.25 92.5 14.25 92.5 11.45 86.4 11.45 86.4 8.8 93.1 8.8 Z"/>
</g>

<g id="FL_300x600_psd_Asset_Urgency_02_Beat_the_tax_deadline_for_0_Layer0_0_MEMBER_18_FILL">
<path fill="#FFFFFF" stroke="none" d="
M 101.45 19.9
L 101.45 14.65 107.25 14.65 107.25 11.8 101.45 11.8 101.45 8.8 107.85 8.8 107.85 5.95 98.05 5.95 98.05 19.9 101.45 19.9 Z"/>
</g>

<g id="FL_300x600_psd_Asset_Urgency_02_Beat_the_tax_deadline_for_0_Layer0_0_MEMBER_19_FILL">
<path fill="#FFFFFF" stroke="none" d="
M 119.55 7.5
Q 117.8 5.7 114.75 5.7 111.65 5.7 109.95 7.5 108.35 9.2 108.35 12.05
L 108.35 13.85
Q 108.35 16.7 109.95 18.4 111.65 20.2 114.75 20.2 117.8 20.2 119.55 18.4 121.15 16.7 121.15 13.85
L 121.15 12.05
Q 121.15 9.2 119.55 7.5
M 114.75 8.55
Q 117.7 8.55 117.7 11.85
L 117.7 14
Q 117.7 17.35 114.75 17.35 111.8 17.35 111.8 14
L 111.8 11.85
Q 111.8 8.55 114.75 8.55 Z"/>
</g>

<g id="FL_300x600_psd_Asset_Urgency_02_Beat_the_tax_deadline_for_0_Layer0_0_MEMBER_20_FILL">
<path fill="#FFFFFF" stroke="none" d="
M 134.35 10.9
Q 134.35 8.7 133 7.35 131.6 5.95 129.1 5.95
L 122.55 5.95 122.55 19.9 126 19.9 126 15.75 128.25 15.75 130.6 19.9 134.6 19.9 131.75 15.2
Q 134.35 14 134.35 10.9
M 128.7 8.7
Q 130.9 8.7 130.9 10.95 130.9 13.05 128.7 13.05
L 126 13.05 126 8.7 128.7 8.7 Z"/>
</g>
</defs>

<g transform="matrix( 1, 0, 0, 1, -98,-309) ">
<g transform="matrix( 1, 0, 0, 1, 0,0) ">
<g transform="matrix( 1, 0, 0, 1, 77,562) ">
<g transform="matrix( 1, 0, 0, 1, 68,53) ">
<g transform="matrix( 1.5477752685546875, 0, 0, 1.5457916259765625, -5.8,58.25) ">
<use xlink:href="#FL_300x600_psd_Asset_Urgency_02_Laptop_free_0_Layer0_0_MEMBER_0_FILL"/>
</g>

<g transform="matrix( 1.5477752685546875, 0, 0, 1.5457916259765625, -5.8,58.25) ">
<use xlink:href="#FL_300x600_psd_Asset_Urgency_02_Laptop_free_0_Layer0_0_MEMBER_1_FILL"/>
</g>

<g transform="matrix( 1.5477752685546875, 0, 0, 1.5457916259765625, -5.8,58.25) ">
<use xlink:href="#FL_300x600_psd_Asset_Urgency_02_Laptop_free_0_Layer0_0_MEMBER_2_FILL"/>
</g>

<g transform="matrix( 1.5477752685546875, 0, 0, 1.5457916259765625, -5.8,58.25) ">
<use xlink:href="#FL_300x600_psd_Asset_Urgency_02_Laptop_free_0_Layer0_0_MEMBER_3_FILL"/>
</g>
</g>
</g>

<g transform="matrix( 1, 0, 0, 1, 123,431) ">
<g transform="matrix( 1.856689453125, 0, 0, 1.86279296875, -2.05,25.9) ">
<use xlink:href="#FL_300x600_psd_Asset_Urgency_02_Beat_the_tax_deadline_for_0_Layer0_0_MEMBER_0_FILL"/>
</g>

<g transform="matrix( 1.856689453125, 0, 0, 1.86279296875, -2.05,25.9) ">
<use xlink:href="#FL_300x600_psd_Asset_Urgency_02_Beat_the_tax_deadline_for_0_Layer0_0_MEMBER_1_FILL"/>
</g>

<g transform="matrix( 1.856689453125, 0, 0, 1.86279296875, -2.05,25.9) ">
<use xlink:href="#FL_300x600_psd_Asset_Urgency_02_Beat_the_tax_deadline_for_0_Layer0_0_MEMBER_2_FILL"/>
</g>

<g transform="matrix( 1.856689453125, 0, 0, 1.86279296875, -2.05,25.9) ">
<use xlink:href="#FL_300x600_psd_Asset_Urgency_02_Beat_the_tax_deadline_for_0_Layer0_0_MEMBER_3_FILL"/>
</g>

<g transform="matrix( 1.856689453125, 0, 0, 1.86279296875, -2.05,25.9) ">
<use xlink:href="#FL_300x600_psd_Asset_Urgency_02_Beat_the_tax_deadline_for_0_Layer0_0_MEMBER_4_FILL"/>
</g>

<g transform="matrix( 1.856689453125, 0, 0, 1.86279296875, -2.05,25.9) ">
<use xlink:href="#FL_300x600_psd_Asset_Urgency_02_Beat_the_tax_deadline_for_0_Layer0_0_MEMBER_5_FILL"/>
</g>

<g transform="matrix( 1.856689453125, 0, 0, 1.86279296875, -2.05,25.9) ">
<use xlink:href="#FL_300x600_psd_Asset_Urgency_02_Beat_the_tax_deadline_for_0_Layer0_0_MEMBER_6_FILL"/>
</g>

<g transform="matrix( 1.856689453125, 0, 0, 1.86279296875, -2.05,25.9) ">
<use xlink:href="#FL_300x600_psd_Asset_Urgency_02_Beat_the_tax_deadline_for_0_Layer0_0_MEMBER_7_FILL"/>
</g>

<g transform="matrix( 1.856689453125, 0, 0, 1.86279296875, -2.05,25.9) ">
<use xlink:href="#FL_300x600_psd_Asset_Urgency_02_Beat_the_tax_deadline_for_0_Layer0_0_MEMBER_8_FILL"/>
</g>

<g transform="matrix( 1.856689453125, 0, 0, 1.86279296875, -2.05,25.9) ">
<use xlink:href="#FL_300x600_psd_Asset_Urgency_02_Beat_the_tax_deadline_for_0_Layer0_0_MEMBER_9_FILL"/>
</g>

<g transform="matrix( 1.856689453125, 0, 0, 1.86279296875, -2.05,25.9) ">
<use xlink:href="#FL_300x600_psd_Asset_Urgency_02_Beat_the_tax_deadline_for_0_Layer0_0_MEMBER_10_FILL"/>
</g>

<g transform="matrix( 1.856689453125, 0, 0, 1.86279296875, -2.05,25.9) ">
<use xlink:href="#FL_300x600_psd_Asset_Urgency_02_Beat_the_tax_deadline_for_0_Layer0_0_MEMBER_11_FILL"/>
</g>

<g transform="matrix( 1.856689453125, 0, 0, 1.86279296875, -2.05,25.9) ">
<use xlink:href="#FL_300x600_psd_Asset_Urgency_02_Beat_the_tax_deadline_for_0_Layer0_0_MEMBER_12_FILL"/>
</g>

<g transform="matrix( 1.856689453125, 0, 0, 1.86279296875, -2.05,25.9) ">
<use xlink:href="#FL_300x600_psd_Asset_Urgency_02_Beat_the_tax_deadline_for_0_Layer0_0_MEMBER_13_FILL"/>
</g>

<g transform="matrix( 1.856689453125, 0, 0, 1.86279296875, -2.05,25.9) ">
<use xlink:href="#FL_300x600_psd_Asset_Urgency_02_Beat_the_tax_deadline_for_0_Layer0_0_MEMBER_14_FILL"/>
</g>

<g transform="matrix( 1.856689453125, 0, 0, 1.86279296875, -2.05,25.9) ">
<use xlink:href="#FL_300x600_psd_Asset_Urgency_02_Beat_the_tax_deadline_for_0_Layer0_0_MEMBER_15_FILL"/>
</g>

<g transform="matrix( 1.856689453125, 0, 0, 1.86279296875, -2.05,25.9) ">
<use xlink:href="#FL_300x600_psd_Asset_Urgency_02_Beat_the_tax_deadline_for_0_Layer0_0_MEMBER_16_FILL"/>
</g>

<g transform="matrix( 1.856689453125, 0, 0, 1.86279296875, -2.05,25.9) ">
<use xlink:href="#FL_300x600_psd_Asset_Urgency_02_Beat_the_tax_deadline_for_0_Layer0_0_MEMBER_17_FILL"/>
</g>

<g transform="matrix( 1.856689453125, 0, 0, 1.86279296875, -2.05,25.9) ">
<use xlink:href="#FL_300x600_psd_Asset_Urgency_02_Beat_the_tax_deadline_for_0_Layer0_0_MEMBER_18_FILL"/>
</g>

<g transform="matrix( 1.856689453125, 0, 0, 1.86279296875, -2.05,25.9) ">
<use xlink:href="#FL_300x600_psd_Asset_Urgency_02_Beat_the_tax_deadline_for_0_Layer0_0_MEMBER_19_FILL"/>
</g>

<g transform="matrix( 1.856689453125, 0, 0, 1.86279296875, -2.05,25.9) ">
<use xlink:href="#FL_300x600_psd_Asset_Urgency_02_Beat_the_tax_deadline_for_0_Layer0_0_MEMBER_20_FILL"/>
</g>
</g>
</g>
</g>
</svg>
